(footprint "ESPRESSIF_ESP32-DEVKITC-32UE" (version 20211014) (generator pcbnew)
  (layer "F.Cu")
  (tedit 63DB5728)
  (attr through_hole)
  (fp_text reference "REF**" (at 9.5 25.47 180) (layer "F.SilkS")
    (effects (font (size 1 1) (thickness 0.15)))
    (tstamp 74d7dd20-1aee-4e98-ac17-5c64de49a546)
  )
  (fp_text value "ESP32-devkitc" (at -3.92 -31.645 180) (layer "F.Fab")
    (effects (font (size 1 1) (thickness 0.15)))
    (tstamp 0d7b46ce-ef6b-40bf-9aac-4bed5a08a6d1)
  )
  (fp_text user "3v3" (at 7.54 16.72 unlocked) (layer "B.SilkS")
    (effects (font (size 1 1) (thickness 0.15)) (justify mirror))
    (tstamp 0a60e02d-b555-47bb-ba7d-1e00f23cd543)
  )
  (fp_text user "d2" (at 7.85 -21.46 unlocked) (layer "B.SilkS")
    (effects (font (size 1 1) (thickness 0.15)) (justify mirror))
    (tstamp 0b226d9e-de24-47a2-90df-0831c7501b2a)
  )
  (fp_text user "tx" (at -9.76 8.88 unlocked) (layer "B.SilkS")
    (effects (font (size 1 1) (thickness 0.15)) (justify mirror))
    (tstamp 0d6d441e-a92c-4a5c-a1ca-1fd23c21dc86)
  )
  (fp_text user "p27" (at 7.52 -8.82 unlocked) (layer "B.SilkS")
    (effects (font (size 1 1) (thickness 0.15)) (justify mirror))
    (tstamp 121d0e57-64f0-4eb8-afe0-4e8b4d188c34)
  )
  (fp_text user "rx" (at -9.68 6.46 unlocked) (layer "B.SilkS")
    (effects (font (size 1 1) (thickness 0.15)) (justify mirror))
    (tstamp 17346ecf-3a67-4132-831a-cecbb0617c19)
  )
  (fp_text user "sd0" (at -9.83 -26.7 unlocked) (layer "B.SilkS")
    (effects (font (size 1 1) (thickness 0.15)) (justify mirror))
    (tstamp 212b7032-b0b1-40d1-a851-00509fc05955)
  )
  (fp_text user "p26" (at 7.57 -6.21 unlocked) (layer "B.SilkS")
    (effects (font (size 1 1) (thickness 0.15)) (justify mirror))
    (tstamp 21896ea9-a287-4fff-8208-269c4762e69c)
  )
  (fp_text user "p14" (at 7.76 -11.41 unlocked) (layer "B.SilkS")
    (effects (font (size 0.7 0.7) (thickness 0.15)) (justify mirror))
    (tstamp 28d87cf6-d558-413f-89c1-8550d151a2a9)
  )
  (fp_text user "sd1" (at -9.8 -24.22 unlocked) (layer "B.SilkS")
    (effects (font (size 1 1) (thickness 0.15)) (justify mirror))
    (tstamp 28e3697c-dce0-4a39-93d1-20714219998b)
  )
  (fp_text user "p4" (at -9.76 -13.98 unlocked) (layer "B.SilkS")
    (effects (font (size 1 1) (thickness 0.15)) (justify mirror))
    (tstamp 298b294c-551d-42e2-8ce5-902f5757c375)
  )
  (fp_text user "p33" (at 7.46 -1.17 unlocked) (layer "B.SilkS")
    (effects (font (size 1 1) (thickness 0.15)) (justify mirror))
    (tstamp 3007ab98-d00a-4dac-98bc-2d8bcafd15e0)
  )
  (fp_text user "en" (at 7.97 13.94 unlocked) (layer "B.SilkS")
    (effects (font (size 1 1) (thickness 0.15)) (justify mirror))
    (tstamp 334d3156-3f84-46d5-af6e-ba729971b8fb)
  )
  (fp_text user "vn" (at 8.02 9.05 unlocked) (layer "B.SilkS")
    (effects (font (size 1 1) (thickness 0.15)) (justify mirror))
    (tstamp 3ad3ec80-4adc-494e-af73-f7cd6e0731ba)
  )
  (fp_text user "p18" (at -9.82 -3.72 unlocked) (layer "B.SilkS")
    (effects (font (size 1 1) (thickness 0.15)) (justify mirror))
    (tstamp 4322b176-a748-43b1-8893-5a8335e0579f)
  )
  (fp_text user "p23" (at -9.88 14.11 unlocked) (layer "B.SilkS")
    (effects (font (size 1 1) (thickness 0.15)) (justify mirror))
    (tstamp 5d8c148a-7d8d-4801-8bef-4944f5583a8c)
  )
  (fp_text user "d3" (at 7.81 -23.93 unlocked) (layer "B.SilkS")
    (effects (font (size 1 1) (thickness 0.15)) (justify mirror))
    (tstamp 655f998b-7886-4a62-9d6d-d348d7fa3898)
  )
  (fp_text user "vp" (at 8.02 11.46 unlocked) (layer "B.SilkS")
    (effects (font (size 1 1) (thickness 0.15)) (justify mirror))
    (tstamp 6787831c-bca0-4506-b4ed-5a92dbb4f577)
  )
  (fp_text user "p17" (at -9.91 -8.91 unlocked) (layer "B.SilkS")
    (effects (font (size 1 1) (thickness 0.15)) (justify mirror))
    (tstamp 7bdb3b7e-08d9-47ad-8080-ed0d25194c46)
  )
  (fp_text user "p2" (at -9.76 -19.06 unlocked) (layer "B.SilkS")
    (effects (font (size 1 1) (thickness 0.15)) (justify mirror))
    (tstamp 7c217b45-bf9c-4c50-80ea-a4b325d4ef91)
  )
  (fp_text user "p16" (at -9.69 -11.44 unlocked) (layer "B.SilkS")
    (effects (font (size 1 1) (thickness 0.15)) (justify mirror))
    (tstamp 8033fc3f-3ad8-4a31-a3f4-5e89a2b2aec1)
  )
  (fp_text user "gnd" (at -10.18 1.15 unlocked) (layer "B.SilkS")
    (effects (font (size 1 1) (thickness 0.15)) (justify mirror))
    (tstamp 86f31997-bb46-4e8d-84f3-494569b09f2f)
  )
  (fp_text user "p13" (at 7.86 -18.83 unlocked) (layer "B.SilkS")
    (effects (font (size 0.7 0.7) (thickness 0.15)) (justify mirror))
    (tstamp 925b3ffa-3914-457a-a193-6be1312efefc)
  )
  (fp_text user "p12" (at 7.44 -13.88 unlocked) (layer "B.SilkS")
    (effects (font (size 1 1) (thickness 0.15)) (justify mirror))
    (tstamp 9deee673-ec9d-4f51-a70e-be21e0a5dae1)
  )
  (fp_text user "gnd" (at 7.42 -16.46 unlocked) (layer "B.SilkS")
    (effects (font (size 1 1) (thickness 0.15)) (justify mirror))
    (tstamp 9e7c6adc-5b2b-4eb7-be24-fa0108e15ffe)
  )
  (fp_text user "${VALUE}" (at -0.49 -15.72 -270) (layer "B.SilkS")
    (effects (font (size 1 1) (thickness 0.15)) (justify mirror))
    (tstamp ab5103cb-e26c-46ab-b2d4-aa9f37143d5b)
  )
  (fp_text user "cmd" (at 7.62 -26.51 unlocked) (layer "B.SilkS")
    (effects (font (size 0.7 0.7) (thickness 0.15)) (justify mirror))
    (tstamp b265c7b5-3bf4-4331-b9ac-879d4e6355c9)
  )
  (fp_text user "p5" (at -9.82 -6.2 unlocked) (layer "B.SilkS")
    (effects (font (size 1 1) (thickness 0.15)) (justify mirror))
    (tstamp bab83fd9-586d-4d20-84f1-3dfbc9e19855)
  )
  (fp_text user "p35" (at 7.94 3.78 unlocked) (layer "B.SilkS")
    (effects (font (size 0.7 0.7) (thickness 0.15)) (justify mirror))
    (tstamp ce09f5c7-6a21-42e8-b60d-de0b878dc134)
  )
  (fp_text user "p21" (at -9.72 3.97 unlocked) (layer "B.SilkS")
    (effects (font (size 1 1) (thickness 0.15)) (justify mirror))
    (tstamp cf2dfe36-e953-4abe-9e4c-59df83ac41c9)
  )
  (fp_text user "p25" (at 7.84 -3.82 unlocked) (layer "B.SilkS")
    (effects (font (size 0.7 0.7) (thickness 0.15)) (justify mirror))
    (tstamp d1023c73-76a7-43fa-adb0-be6bcf6d6a50)
  )
  (fp_text user "gnd" (at -10.28 16.37 unlocked) (layer "B.SilkS")
    (effects (font (size 1 1) (thickness 0.15)) (justify mirror))
    (tstamp d501fbce-0819-4b86-a7b6-d595b19a853f)
  )
  (fp_text user "p22" (at -9.84 11.49 unlocked) (layer "B.SilkS")
    (effects (font (size 1 1) (thickness 0.15)) (justify mirror))
    (tstamp df4ca9a6-1971-4326-8627-43d380a23848)
  )
  (fp_text user "p34" (at 7.58 6.28 unlocked) (layer "B.SilkS")
    (effects (font (size 1 1) (thickness 0.15)) (justify mirror))
    (tstamp e1137d8b-1c1c-45d2-893b-d98b4bd076ea)
  )
  (fp_text user "p0" (at -9.83 -16.49 unlocked) (layer "B.SilkS")
    (effects (font (size 1 1) (thickness 0.15)) (justify mirror))
    (tstamp e7f6448d-d422-4888-ae42-f765949be484)
  )
  (fp_text user "clk" (at -9.85 -29.26 unlocked) (layer "B.SilkS")
    (effects (font (size 1 1) (thickness 0.15)) (justify mirror))
    (tstamp ea0813b1-fe59-4b87-81de-7453f352ee90)
  )
  (fp_text user "p19" (at -9.8 -1.26 unlocked) (layer "B.SilkS")
    (effects (font (size 1 1) (thickness 0.15)) (justify mirror))
    (tstamp ede50d68-54ec-4816-9575-bc366f42d33b)
  )
  (fp_text user "5V" (at 7.95 -28.98 unlocked) (layer "B.SilkS")
    (effects (font (size 1 1) (thickness 0.15)) (justify mirror))
    (tstamp ef5192ed-8625-4ba2-a531-4cc4f495d911)
  )
  (fp_text user "p15" (at -9.79 -21.7 unlocked) (layer "B.SilkS")
    (effects (font (size 1 1) (thickness 0.15)) (justify mirror))
    (tstamp f2590788-82b7-4352-a80b-ebfc02969b81)
  )
  (fp_text user "p32" (at 7.51 1.23 unlocked) (layer "B.SilkS")
    (effects (font (size 1 1) (thickness 0.15)) (justify mirror))
    (tstamp f6243cf0-7e6f-42c0-8b09-5bf646f7f50a)
  )
  (fp_text user "p5" (at -15.93 -6 unlocked) (layer "F.SilkS")
    (effects (font (size 1 1) (thickness 0.15)))
    (tstamp 028e371f-99a5-46e0-bbd1-051e7713ae89)
  )
  (fp_text user "clk" (at -15.9 -29.06 unlocked) (layer "F.SilkS")
    (effects (font (size 1 1) (thickness 0.15)))
    (tstamp 0e91f226-7a0c-46be-b57c-228e982e788e)
  )
  (fp_text user "${VALUE}" (at -0.38 -15.82 270) (layer "F.SilkS")
    (effects (font (size 1 1) (thickness 0.15)))
    (tstamp 163a7122-53b3-4075-a406-81214d6468b8)
  )
  (fp_text user "p19" (at -15.95 -1.06 unlocked) (layer "F.SilkS")
    (effects (font (size 1 1) (thickness 0.15)))
    (tstamp 2091c905-0159-41a2-baef-f578e6c616f1)
  )
  (fp_text user "5V" (at 12.35 -29.06 unlocked) (layer "F.SilkS")
    (effects (font (size 1 1) (thickness 0.15)))
    (tstamp 2b867e13-2aa0-4d3a-8bb5-95138b4efc8d)
  )
  (fp_text user "p25" (at 12.46 -3.9 unlocked) (layer "F.SilkS")
    (effects (font (size 0.7 0.7) (thickness 0.15)))
    (tstamp 2ed376ee-8088-4f9c-aae9-3ef6a9f3ccaf)
  )
  (fp_text user "p13" (at 12.44 -18.91 unlocked) (layer "F.SilkS")
    (effects (font (size 0.7 0.7) (thickness 0.15)))
    (tstamp 2f7fb360-88db-47cb-820d-2b7592a7d007)
  )
  (fp_text user "p0" (at -15.92 -16.29 unlocked) (layer "F.SilkS")
    (effects (font (size 1 1) (thickness 0.15)))
    (tstamp 32f4a987-8ed7-4983-a9be-860b5a351655)
  )
  (fp_text user "p27" (at 12.78 -8.9 unlocked) (layer "F.SilkS")
    (effects (font (size 1 1) (thickness 0.15)))
    (tstamp 39d72b1d-c8c1-410a-ba21-71bec739e9d5)
  )
  (fp_text user "d2" (at 12.45 -21.54 unlocked) (layer "F.SilkS")
    (effects (font (size 1 1) (thickness 0.15)))
    (tstamp 417def51-dfc0-4130-86d1-a4b19fc03dbe)
  )
  (fp_text user "p35" (at 12.36 3.7 unlocked) (layer "F.SilkS")
    (effects (font (size 0.7 0.7) (thickness 0.15)))
    (tstamp 41a51777-2053-4d33-a550-fcd6ed4a7333)
  )
  (fp_text user "p34" (at 12.72 6.2 unlocked) (layer "F.SilkS")
    (effects (font (size 1 1) (thickness 0.15)))
    (tstamp 44b651e6-220b-43f4-a766-7c9077b9f8e7)
  )
  (fp_text user "d3" (at 12.49 -24.01 unlocked) (layer "F.SilkS")
    (effects (font (size 1 1) (thickness 0.15)))
    (tstamp 48caafa4-d6aa-4803-873e-c4d5f1e128ca)
  )
  (fp_text user "p32" (at 12.79 1.15 unlocked) (layer "F.SilkS")
    (effects (font (size 1 1) (thickness 0.15)))
    (tstamp 5e57b86c-ca9a-45bc-8f5f-9735e8762ae9)
  )
  (fp_text user "p21" (at -16.03 4.17 unlocked) (layer "F.SilkS")
    (effects (font (size 1 1) (thickness 0.15)))
    (tstamp 66da1bbd-b06b-486f-8650-d3529ee72396)
  )
  (fp_text user "p16" (at -16.06 -11.24 unlocked) (layer "F.SilkS")
    (effects (font (size 1 1) (thickness 0.15)))
    (tstamp 6f7e432a-9dda-4c09-94ed-6341b684bcb5)
  )
  (fp_text user "p23" (at -15.87 14.31 unlocked) (layer "F.SilkS")
    (effects (font (size 1 1) (thickness 0.15)))
    (tstamp 711e940b-bf92-4c49-8828-dded41eef0a5)
  )
  (fp_text user "gnd" (at -15.47 16.57 unlocked) (layer "F.SilkS")
    (effects (font (size 1 1) (thickness 0.15)))
    (tstamp 714192bc-8a59-4829-b92d-e29f62d87bc2)
  )
  (fp_text user "gnd" (at -15.57 1.35 unlocked) (layer "F.SilkS")
    (effects (font (size 1 1) (thickness 0.15)))
    (tstamp 7463ea00-5446-492f-9f81-151c5f6d36ca)
  )
  (fp_text user "rx" (at -16.07 6.66 unlocked) (layer "F.SilkS")
    (effects (font (size 1 1) (thickness 0.15)))
    (tstamp 7c636056-da84-4758-a91a-b1f5865285f3)
  )
  (fp_text user "p12" (at 12.86 -13.96 unlocked) (layer "F.SilkS")
    (effects (font (size 1 1) (thickness 0.15)))
    (tstamp 81449148-9754-41ce-a8cd-6e9db05a3aff)
  )
  (fp_text user "p14" (at 12.54 -11.49 unlocked) (layer "F.SilkS")
    (effects (font (size 0.7 0.7) (thickness 0.15)))
    (tstamp 8991cac7-241a-44a6-8802-ae66437e5642)
  )
  (fp_text user "gnd" (at 12.88 -16.54 unlocked) (layer "F.SilkS")
    (effects (font (size 1 1) (thickness 0.15)))
    (tstamp 931bd72f-c0ed-4f6a-a55b-081ae192a0b8)
  )
  (fp_text user "p17" (at -15.84 -8.71 unlocked) (layer "F.SilkS")
    (effects (font (size 1 1) (thickness 0.15)))
    (tstamp 9cf4628e-be40-4df1-9449-5f16b48cb8bf)
  )
  (fp_text user "vn" (at 12.28 8.97 unlocked) (layer "F.SilkS")
    (effects (font (size 1 1) (thickness 0.15)))
    (tstamp a028e131-d674-47b8-8f89-0e3577af8bc7)
  )
  (fp_text user "p26" (at 12.73 -6.29 unlocked) (layer "F.SilkS")
    (effects (font (size 1 1) (thickness 0.15)))
    (tstamp a48194c9-f9e5-4472-b81e-1ba327a824e7)
  )
  (fp_text user "p18" (at -15.93 -3.52 unlocked) (layer "F.SilkS")
    (effects (font (size 1 1) (thickness 0.15)))
    (tstamp a962015e-d5de-42e8-bcca-d7cae0532d42)
  )
  (fp_text user "tx" (at -15.99 9.08 unlocked) (layer "F.SilkS")
    (effects (font (size 1 1) (thickness 0.15)))
    (tstamp ac05b4ae-cc55-4e04-9800-5840420c4ce0)
  )
  (fp_text user "sd1" (at -15.95 -24.02 unlocked) (layer "F.SilkS")
    (effects (font (size 1 1) (thickness 0.15)))
    (tstamp b05ac7e1-6f3e-4604-a60a-afb6d28e0a88)
  )
  (fp_text user "en" (at 12.33 13.86 unlocked) (layer "F.SilkS")
    (effects (font (size 1 1) (thickness 0.15)))
    (tstamp bdd4216b-ec4d-4879-a30d-bda82053547e)
  )
  (fp_text user "p4" (at -15.99 -13.78 unlocked) (layer "F.SilkS")
    (effects (font (size 1 1) (thickness 0.15)))
    (tstamp cdc3f10a-d77c-4d5f-977c-8a17fe021a98)
  )
  (fp_text user "p15" (at -15.96 -21.5 unlocked) (layer "F.SilkS")
    (effects (font (size 1 1) (thickness 0.15)))
    (tstamp d008c959-663d-4dc2-85fb-6672bfdecf8d)
  )
  (fp_text user "3v3" (at 12.76 16.64 unlocked) (layer "F.SilkS")
    (effects (font (size 1 1) (thickness 0.15)))
    (tstamp d10983e2-e0ce-409e-88dc-ee6409ddbd55)
  )
  (fp_text user "p2" (at -15.99 -18.86 unlocked) (layer "F.SilkS")
    (effects (font (size 1 1) (thickness 0.15)))
    (tstamp d49dad00-61e2-469f-bd5f-0d6cd33848b8)
  )
  (fp_text user "p22" (at -15.91 11.69 unlocked) (layer "F.SilkS")
    (effects (font (size 1 1) (thickness 0.15)))
    (tstamp d520ee0c-d3e2-40f4-9293-e7c979be695c)
  )
  (fp_text user "p33" (at 12.84 -1.25 unlocked) (layer "F.SilkS")
    (effects (font (size 1 1) (thickness 0.15)))
    (tstamp df72617e-66cb-49d5-924d-5ee8f3c33f6b)
  )
  (fp_text user "sd0" (at -15.92 -26.5 unlocked) (layer "F.SilkS")
    (effects (font (size 1 1) (thickness 0.15)))
    (tstamp e366fad1-e8cb-407d-9d36-8ec7eaee4c72)
  )
  (fp_text user "vp" (at 12.28 11.38 unlocked) (layer "F.SilkS")
    (effects (font (size 1 1) (thickness 0.15)))
    (tstamp e9d79356-5ed5-44b8-98ec-ee8fb808fd32)
  )
  (fp_text user "cmd" (at 12.68 -26.59 unlocked) (layer "F.SilkS")
    (effects (font (size 0.7 0.7) (thickness 0.15)))
    (tstamp ef2cffd1-c375-4dd8-8422-7e315bbf849f)
  )
  (fp_rect (start -14.09 -30.38) (end 11.21 24.02) (layer "B.SilkS") (width 0.12) (fill none) (tstamp 47f0a45f-cf9e-4d3a-bcf3-f57e78e31706))
  (fp_poly (pts
      (xy -1.869152 -2.132001)
      (xy -1.898436 -2.247615)
      (xy -1.955913 -2.347758)
      (xy -2.037611 -2.439837)
      (xy -2.13953 -2.528752)
      (xy -2.240394 -2.583091)
      (xy -2.358564 -2.609946)
      (xy -2.494894 -2.616481)
      (xy -2.644341 -2.608295)
      (xy -2.759955 -2.579011)
      (xy -2.860098 -2.521534)
      (xy -2.952177 -2.439837)
      (xy -3.0173 -2.36506)
      (xy -3.071586 -2.286879)
      (xy -3.080196 -2.271386)
      (xy -3.113969 -2.169554)
      (xy -3.131975 -2.039286)
      (xy -3.132948 -1.904204)
      (xy -3.115621 -1.787932)
      (xy -3.107478 -1.76239)
      (xy -3.022026 -1.602961)
      (xy -2.903447 -1.4787)
      (xy -2.760508 -1.391584)
      (xy -2.601975 -1.343587)
      (xy -2.436616 -1.336687)
      (xy -2.273198 -1.372859)
      (xy -2.120487 -1.454079)
      (xy -2.040899 -1.521982)
      (xy -1.950634 -1.624826)
      (xy -1.895407 -1.725346)
      (xy -1.867949 -1.842145)
      (xy -1.860967 -1.982553)
    ) (layer "B.SilkS") (width 0) (fill solid) (tstamp 06c1c674-edbe-45d0-be43-5bd8d4e632b4))
  (fp_poly (pts
      (xy -1.429937 0.710692)
      (xy -1.457239 0.553548)
      (xy -1.486454 0.471077)
      (xy -1.56871 0.337639)
      (xy -1.685145 0.206804)
      (xy -1.81805 0.096282)
      (xy -1.922141 0.03539)
      (xy -2.059248 -0.00652)
      (xy -2.22413 -0.025359)
      (xy -2.395691 -0.021127)
      (xy -2.552835 0.006175)
      (xy -2.635306 0.03539)
      (xy -2.767687 0.116765)
      (xy -2.89693 0.231428)
      (xy -3.005885 0.362146)
      (xy -3.068884 0.471077)
      (xy -3.109216 0.601741)
      (xy -3.131389 0.757801)
      (xy -3.13401 0.91655)
      (xy -3.115685 1.055277)
      (xy -3.106701 1.087164)
      (xy -3.018222 1.276183)
      (xy -2.89133 1.434038)
      (xy -2.733932 1.557196)
      (xy -2.553931 1.642128)
      (xy -2.359232 1.685304)
      (xy -2.278724 1.68446)
      (xy -2.278724 1.26)
      (xy -2.344294 1.247893)
      (xy -2.429911 1.217271)
      (xy -2.468902 1.199202)
      (xy -2.570142 1.123878)
      (xy -2.651582 1.018155)
      (xy -2.701337 0.90027)
      (xy -2.711064 0.827659)
      (xy -2.698958 0.762089)
      (xy -2.668335 0.676472)
      (xy -2.650266 0.637481)
      (xy -2.574942 0.536241)
      (xy -2.469219 0.454801)
      (xy -2.351334 0.405046)
      (xy -2.278724 0.395319)
      (xy -2.162563 0.418884)
      (xy -2.047026 0.481655)
      (xy -1.950347 0.571747)
      (xy -1.907181 0.637481)
      (xy -1.870881 0.723327)
      (xy -1.849141 0.8015)
      (xy -1.846383 0.827659)
      (xy -1.858489 0.89323)
      (xy -1.889112 0.978847)
      (xy -1.907181 1.017838)
      (xy -1.982505 1.119078)
      (xy -2.088228 1.200518)
      (xy -2.206113 1.250273)
      (xy -2.278724 1.26)
      (xy -2.278724 1.68446)
      (xy -2.157742 1.683191)
      (xy -1.957365 1.632261)
      (xy -1.920487 1.616958)
      (xy -1.791378 1.539174)
      (xy -1.663327 1.426839)
      (xy -1.55344 1.297005)
      (xy -1.486454 1.184242)
      (xy -1.444545 1.047134)
      (xy -1.425705 0.882252)
    ) (layer "B.SilkS") (width 0) (fill solid) (tstamp 2d6f5edc-3e12-415a-989d-a0cca3fc7b6f))
  (fp_poly (pts
      (xy 4.166959 8.178443)
      (xy 4.089196 8.026225)
      (xy 3.968415 7.894454)
      (xy 3.910523 7.851103)
      (xy 3.752943 7.773537)
      (xy 3.592118 7.744095)
      (xy 3.434431 7.757725)
      (xy 3.286268 7.809373)
      (xy 3.154011 7.893987)
      (xy 3.044046 8.006512)
      (xy 2.962757 8.141897)
      (xy 2.916526 8.295087)
      (xy 2.91174 8.461031)
      (xy 2.946946 8.613781)
      (xy 3.02886 8.769305)
      (xy 3.146443 8.892635)
      (xy 3.290252 8.980614)
      (xy 3.450849 9.030083)
      (xy 3.591587 9.036621)
      (xy 3.591587 8.597849)
      (xy 3.495831 8.589965)
      (xy 3.480079 8.584121)
      (xy 3.393315 8.523693)
      (xy 3.351875 8.438099)
      (xy 3.359192 8.33631)
      (xy 3.372228 8.30214)
      (xy 3.430876 8.228905)
      (xy 3.512651 8.193175)
      (xy 3.602279 8.194433)
      (xy 3.684484 8.232161)
      (xy 3.74399 8.305843)
      (xy 3.747981 8.314871)
      (xy 3.763691 8.411874)
      (xy 3.735924 8.498344)
      (xy 3.675087 8.563822)
      (xy 3.591587 8.597849)
      (xy 3.591587 9.036621)
      (xy 3.61879 9.037885)
      (xy 3.784637 9.000859)
      (xy 3.910523 8.936131)
      (xy 4.047844 8.81458)
      (xy 4.142148 8.669176)
      (xy 4.193436 8.508778)
      (xy 4.201706 8.342247)
    ) (layer "B.SilkS") (width 0) (fill solid) (tstamp 2e8a7ada-8be2-4c53-b0ef-8ea513435eb6))
  (fp_poly (pts
      (xy 5.922206 -0.865069)
      (xy 5.921488 -1.101177)
      (xy 5.919695 -1.296722)
      (xy 5.91637 -1.456195)
      (xy 5.911059 -1.58409)
      (xy 5.903307 -1.6849)
      (xy 5.892658 -1.763117)
      (xy 5.878658 -1.823234)
      (xy 5.860851 -1.869743)
      (xy 5.838782 -1.907138)
      (xy 5.811997 -1.939911)
      (xy 5.780039 -1.972555)
      (xy 5.744517 -2.007496)
      (xy 5.643442 -2.093666)
      (xy 5.536434 -2.149205)
      (xy 5.406604 -2.180875)
      (xy 5.280479 -2.193247)
      (xy 5.071064 -2.205667)
      (xy 5.071064 -2.388498)
      (xy 5.04609 -2.625913)
      (xy 4.974323 -2.847532)
      (xy 4.860499 -3.046726)
      (xy 4.709351 -3.21687)
      (xy 4.525612 -3.351337)
      (xy 4.318377 -3.442148)
      (xy 4.292779 -3.449787)
      (xy 4.265575 -3.456663)
      (xy 4.233938 -3.462817)
      (xy 4.19504 -3.46829)
      (xy 4.146051 -3.47312)
      (xy 4.084146 -3.477348)
      (xy 4.006494 -3.481014)
      (xy 3.910269 -3.484158)
      (xy 3.792641 -3.48682)
      (xy 3.650784 -3.489041)
      (xy 3.481868 -3.490859)
      (xy 3.283066 -3.492315)
      (xy 3.05155 -3.49345)
      (xy 2.784492 -3.494303)
      (xy 2.479063 -3.494914)
      (xy 2.132435 -3.495323)
      (xy 1.741781 -3.495571)
      (xy 1.304272 -3.495697)
      (xy 0.81708 -3.495741)
      (xy 0.531489 -3.495745)
      (xy 0.01621 -3.495728)
      (xy -0.447855 -3.495652)
      (xy -0.863534 -3.495475)
      (xy -1.233654 -3.495158)
      (xy -1.561044 -3.494661)
      (xy -1.848532 -3.493944)
      (xy -2.098946 -3.492967)
      (xy -2.315114 -3.49169)
      (xy -2.499864 -3.490073)
      (xy -2.656024 -3.488075)
      (xy -2.786423 -3.485657)
      (xy -2.893888 -3.482779)
      (xy -2.981248 -3.4794)
      (xy -3.05133 -3.475482)
      (xy -3.106963 -3.470983)
      (xy -3.150975 -3.465863)
      (xy -3.186194 -3.460083)
      (xy -3.215447 -3.453603)
      (xy -3.241564 -3.446382)
      (xy -3.255398 -3.442148)
      (xy -3.459784 -3.351206)
      (xy -3.643519 -3.216582)
      (xy -3.79749 -3.047391)
      (xy -3.912581 -2.852748)
      (xy -3.954489 -2.743058)
      (xy -3.960587 -2.722729)
      (xy -3.966204 -2.700945)
      (xy -3.971358 -2.67551)
      (xy -3.976069 -2.644226)
      (xy -3.980356 -2.604899)
      (xy -3.984237 -2.555332)
      (xy -3.987733 -2.493329)
      (xy -3.990862 -2.416694)
      (xy -3.993643 -2.32323)
      (xy -3.996097 -2.210741)
      (xy -3.998241 -2.077032)
      (xy -4.000095 -1.919905)
      (xy -4.001679 -1.737165)
      (xy -4.003011 -1.526616)
      (xy -4.004111 -1.286061)
      (xy -4.004998 -1.013305)
      (xy -4.005691 -0.706151)
      (xy -4.006209 -0.362402)
      (xy -4.006572 0.020137)
      (xy -4.006798 0.443662)
      (xy -4.006907 0.91037)
      (xy -4.006919 1.422456)
      (xy -4.006852 1.982118)
      (xy -4.006725 2.591551)
      (xy -4.006567 3.215133)
      (xy -4.006385 3.873878)
      (xy -4.006183 4.480772)
      (xy -4.005943 5.038007)
      (xy -4.005644 5.547776)
      (xy -4.005267 6.01227)
      (xy -4.004793 6.433682)
      (xy -4.0042 6.814203)
      (xy -4.003471 7.156025)
      (xy -4.002584 7.461341)
      (xy -4.00152 7.732342)
      (xy -4.00026 7.971221)
      (xy -3.998784 8.180169)
      (xy -3.997072 8.361378)
      (xy -3.995104 8.517041)
      (xy -3.99286 8.649349)
      (xy -3.990322 8.760495)
      (xy -3.987468 8.852669)
      (xy -3.98428 8.928065)
      (xy -3.980738 8.988875)
      (xy -3.976821 9.03729)
      (xy -3.972511 9.075502)
      (xy -3.967787 9.105703)
      (xy -3.96263 9.130086)
      (xy -3.95702 9.150842)
      (xy -3.953026 9.163723)
      (xy -3.861983 9.363296)
      (xy -3.727396 9.544019)
      (xy -3.57859 9.678564)
      (xy -3.57859 -0.901702)
      (xy -3.570412 -1.746117)
      (xy -3.56785 -1.985075)
      (xy -3.565039 -2.176196)
      (xy -3.561591 -2.325688)
      (xy -3.55712 -2.439757)
      (xy -3.551238 -2.524609)
      (xy -3.543559 -2.586451)
      (xy -3.533695 -2.631488)
      (xy -3.521259 -2.665929)
      (xy -3.511862 -2.685107)
      (xy -3.396409 -2.847718)
      (xy -3.245835 -2.97145)
      (xy -3.210958 -2.991571)
      (xy -3.178361 -3.00793)
      (xy -3.143623 -3.021002)
      (xy -3.100412 -3.031228)
      (xy -3.042392 -3.03905)
      (xy -2.963229 -3.04491)
      (xy -2.856591 -3.049252)
      (xy -2.716143 -3.052516)
      (xy -2.535551 -3.055146)
      (xy -2.308482 -3.057583)
      (xy -2.258458 -3.058072)
      (xy -1.414043 -3.06625)
      (xy -1.414043 -0.901702)
      (xy -3.57859 -0.901702)
      (xy -3.57859 9.678564)
      (xy -3.558966 9.696307)
      (xy -3.366389 9.810574)
      (xy -3.255398 9.853212)
      (xy -3.2298 9.86085)
      (xy -3.202597 9.867727)
      (xy -3.17096 9.873881)
      (xy -3.132061 9.879353)
      (xy -3.083073 9.884183)
      (xy -3.021167 9.888411)
      (xy -2.943516 9.892077)
      (xy -2.84729 9.895221)
      (xy -2.729663 9.897884)
      (xy -2.587805 9.900104)
      (xy -2.41889 9.901922)
      (xy -2.220088 9.903379)
      (xy -1.988572 9.904513)
      (xy -1.721513 9.905366)
      (xy -1.416084 9.905977)
      (xy -1.069456 9.906387)
      (xy -0.678802 9.906634)
      (xy -0.241293 9.90676)
      (xy 0.245899 9.906804)
      (xy 0.531489 9.906808)
      (xy 0.531489 9.460957)
      (xy 0.014534 9.460935)
      (xy -0.451137 9.460845)
      (xy -0.868281 9.460649)
      (xy -1.239656 9.460309)
      (xy -1.56802 9.45979)
      (xy -1.85613 9.459052)
      (xy -2.106745 9.45806)
      (xy -2.322623 9.456776)
      (xy -2.506521 9.455162)
      (xy -2.661197 9.453182)
      (xy -2.789409 9.450798)
      (xy -2.893915 9.447973)
      (xy -2.977472 9.444669)
      (xy -3.042839 9.44085)
      (xy -3.092774 9.436478)
      (xy -3.130034 9.431516)
      (xy -3.157377 9.425926)
      (xy -3.177561 9.419672)
      (xy -3.193344 9.412716)
      (xy -3.197447 9.410585)
      (xy -3.359953 9.296042)
      (xy -3.479761 9.148697)
      (xy -3.550498 8.98826)
      (xy -3.552706 8.954396)
      (xy -3.554874 8.869288)
      (xy -3.556989 8.735732)
      (xy -3.559038 8.556526)
      (xy -3.561007 8.334468)
      (xy -3.562883 8.072355)
      (xy -3.564652 7.772984)
      (xy -3.5663 7.439153)
      (xy -3.567815 7.073661)
      (xy -3.569182 6.679303)
      (xy -3.570389 6.258878)
      (xy -3.571421 5.815183)
      (xy -3.572266 5.351016)
      (xy -3.57291 4.869174)
      (xy -3.57334 4.372455)
      (xy -3.573422 4.225585)
      (xy -3.575745 -0.469362)
      (xy -0.981702 -0.469362)
      (xy -0.981702 -3.064466)
      (xy 1.592074 -3.05718)
      (xy 2.023386 -3.055921)
      (xy 2.403965 -3.054688)
      (xy 2.737124 -3.05341)
      (xy 3.026172 -3.052015)
      (xy 3.274422 -3.050431)
      (xy 3.485183 -3.048588)
      (xy 3.661766 -3.046413)
      (xy 3.807483 -3.043834)
      (xy 3.925643 -3.040782)
      (xy 4.019559 -3.037183)
      (xy 4.09254 -3.032966)
      (xy 4.147898 -3.02806)
      (xy 4.188942 -3.022393)
      (xy 4.218985 -3.015894)
      (xy 4.241337 -3.008492)
      (xy 4.259309 -3.000113)
      (xy 4.260425 -2.999522)
      (xy 4.418204 -2.891051)
      (xy 4.531233 -2.755665)
      (xy 4.602119 -2.589152)
      (xy 4.632803 -2.398292)
      (xy 4.64536 -2.206052)
      (xy 4.432627 -2.193439)
      (xy 4.273836 -2.175894)
      (xy 4.151186 -2.140455)
      (xy 4.047958 -2.080471)
      (xy 3.96527 -2.007496)
      (xy 3.927983 -1.97082)
      (xy 3.896301 -1.938279)
      (xy 3.869767 -1.905379)
      (xy 3.847927 -1.867627)
      (xy 3.830325 -1.820531)
      (xy 3.816507 -1.759599)
      (xy 3.806018 -1.680337)
      (xy 3.798401 -1.578252)
      (xy 3.793203 -1.448853)
      (xy 3.789967 -1.287646)
      (xy 3.78824 -1.090139)
      (xy 3.787565 -0.851839)
      (xy 3.787488 -0.568252)
      (xy 3.787553 -0.253192)
      (xy 3.787484 0.077522)
      (xy 3.787581 0.358686)
      (xy 3.788299 0.594794)
      (xy 3.790092 0.790338)
      (xy 3.793417 0.949812)
      (xy 3.798728 1.077707)
      (xy 3.80648 1.178517)
      (xy 3.817129 1.256733)
      (xy 3.831129 1.31685)
      (xy 3.848936 1.36336)
      (xy 3.871005 1.400755)
      (xy 3.89779 1.433528)
      (xy 3.929748 1.466172)
      (xy 3.96527 1.501113)
      (xy 4.066196 1.587186)
      (xy 4.173013 1.642696)
      (xy 4.302593 1.674391)
      (xy 4.429688 1.686886)
      (xy 4.639483 1.699328)
      (xy 4.632348 5.350462)
      (xy 4.631313 5.868733)
      (xy 4.630308 6.335712)
      (xy 4.629291 6.754149)
      (xy 4.628221 7.126797)
      (xy 4.627054 7.456404)
      (xy 4.625749 7.745721)
      (xy 4.624264 7.9975)
      (xy 4.622556 8.214491)
      (xy 4.620582 8.399444)
      (xy 4.618302 8.55511)
      (xy 4.615671 8.68424)
      (xy 4.61265 8.789584)
      (xy 4.609194 8.873893)
      (xy 4.605262 8.939917)
      (xy 4.600811 8.990408)
      (xy 4.5958 9.028115)
      (xy 4.590186 9.055789)
      (xy 4.583927 9.076182)
      (xy 4.57698 9.092043)
      (xy 4.574841 9.09617)
      (xy 4.459388 9.258782)
      (xy 4.308813 9.382513)
      (xy 4.273936 9.402634)
      (xy 4.165851 9.460957)
      (xy 0.531489 9.460957)
      (xy 0.531489 9.906808)
      (xy 1.046769 9.906792)
      (xy 1.510834 9.906715)
      (xy 1.926512 9.906538)
      (xy 2.296632 9.906222)
      (xy 2.624022 9.905725)
      (xy 2.91151 9.905008)
      (xy 3.161924 9.904031)
      (xy 3.378092 9.902753)
      (xy 3.562843 9.901136)
      (xy 3.719003 9.899138)
      (xy 3.849402 9.89672)
      (xy 3.956867 9.893842)
      (xy 4.044227 9.890464)
      (xy 4.114309 9.886545)
      (xy 4.169942 9.882046)
      (xy 4.213954 9.876926)
      (xy 4.249172 9.871147)
      (xy 4.278426 9.864666)
      (xy 4.304542 9.857445)
      (xy 4.318377 9.853212)
      (xy 4.522762 9.76227)
      (xy 4.706498 9.627645)
      (xy 4.854894 9.46458)
      (xy 4.854894 1.26)
      (xy 4.662399 1.258592)
      (xy 4.516538 1.253429)
      (xy 4.409951 1.243106)
      (xy 4.33528 1.226215)
      (xy 4.285165 1.20135)
      (xy 4.252249 1.167105)
      (xy 4.237987 1.142077)
      (xy 4.231196 1.101252)
      (xy 4.225237 1.012835)
      (xy 4.220113 0.883269)
      (xy 4.215829 0.718998)
      (xy 4.212387 0.526467)
      (xy 4.209791 0.312117)
      (xy 4.208046 0.082394)
      (xy 4.207155 -0.156259)
      (xy 4.207121 -0.397398)
      (xy 4.207949 -0.63458)
      (xy 4.209641 -0.861361)
      (xy 4.212203 -1.071296)
      (xy 4.215637 -1.257943)
      (xy 4.219947 -1.414857)
      (xy 4.225137 -1.535595)
      (xy 4.23121 -1.613713)
      (xy 4.236384 -1.640536)
      (xy 4.261933 -1.683431)
      (xy 4.299049 -1.715501)
      (xy 4.355146 -1.738255)
      (xy 4.437642 -1.753204)
      (xy 4.553954 -1.761856)
      (xy 4.711497 -1.765719)
      (xy 4.854894 -1.766383)
      (xy 5.046779 -1.765036)
      (xy 5.192084 -1.75999)
      (xy 5.298223 -1.749735)
      (xy 5.372615 -1.732762)
      (xy 5.422675 -1.707562)
      (xy 5.455821 -1.672626)
      (xy 5.473403 -1.640536)
      (xy 5.480515 -1.597995)
      (xy 5.486718 -1.507908)
      (xy 5.492012 -1.376763)
      (xy 5.496398 -1.21105)
      (xy 5.499876 -1.017256)
      (xy 5.502444 -0.801871)
      (xy 5.504105 -0.571383)
      (xy 5.504857 -0.332282)
      (xy 5.5047 -0.091055)
      (xy 5.503635 0.145808)
      (xy 5.501661 0.371819)
      (xy 5.498779 0.580489)
      (xy 5.494988 0.76533)
      (xy 5.490288 0.919852)
      (xy 5.484681 1.037567)
      (xy 5.478164 1.111987)
      (xy 5.473403 1.134153)
      (xy 5.447854 1.177047)
      (xy 5.410739 1.209117)
      (xy 5.354641 1.231872)
      (xy 5.272145 1.246821)
      (xy 5.155833 1.255472)
      (xy 4.99829 1.259336)
      (xy 4.854894 1.26)
      (xy 4.854894 9.46458)
      (xy 4.860469 9.458454)
      (xy 4.975559 9.263812)
      (xy 5.017467 9.154122)
      (xy 5.025079 9.128614)
      (xy 5.031935 9.101503)
      (xy 5.038073 9.069971)
      (xy 5.043533 9.031202)
      (xy 5.048356 8.982379)
      (xy 5.05258 8.920684)
      (xy 5.056246 8.843302)
      (xy 5.059392 8.747414)
      (xy 5.062059 8.630205)
      (xy 5.064286 8.488858)
      (xy 5.066112 8.320554)
      (xy 5.067577 8.122479)
      (xy 5.068722 7.891815)
      (xy 5.069584 7.625744)
      (xy 5.070205 7.321451)
      (xy 5.070623 6.976117)
      (xy 5.070878 6.586928)
      (xy 5.07101 6.151064)
      (xy 5.071058 5.665711)
      (xy 5.071064 5.340838)
      (xy 5.071064 1.699284)
      (xy 5.280479 1.686864)
      (xy 5.439386 1.668965)
      (xy 5.562468 1.632401)
      (xy 5.666614 1.570411)
      (xy 5.744517 1.501113)
      (xy 5.781804 1.464437)
      (xy 5.813486 1.431895)
      (xy 5.84002 1.398995)
      (xy 5.86186 1.361244)
      (xy 5.879462 1.314148)
      (xy 5.89328 1.253215)
      (xy 5.903769 1.173953)
      (xy 5.911386 1.071869)
      (xy 5.916584 0.94247)
      (xy 5.91982 0.781263)
      (xy 5.921547 0.583756)
      (xy 5.922222 0.345455)
      (xy 5.922299 0.061869)
      (xy 5.922234 -0.253192)
      (xy 5.922303 -0.583905)
    ) (layer "B.SilkS") (width 0) (fill solid) (tstamp 40dfb891-ab55-4ef7-940c-c338e93c1e02))
  (fp_poly (pts
      (xy 3.325808 0.278351)
      (xy 3.298506 0.121208)
      (xy 3.26929 0.038737)
      (xy 3.187034 -0.094701)
      (xy 3.070599 -0.225536)
      (xy 2.937695 -0.336059)
      (xy 2.833604 -0.39695)
      (xy 2.696496 -0.43886)
      (xy 2.531614 -0.457699)
      (xy 2.360053 -0.453468)
      (xy 2.20291 -0.426166)
      (xy 2.120439 -0.39695)
      (xy 1.988058 -0.315575)
      (xy 1.858815 -0.200912)
      (xy 1.74986 -0.070194)
      (xy 1.686861 0.038737)
      (xy 1.646529 0.1694)
      (xy 1.624356 0.325461)
      (xy 1.621735 0.484209)
      (xy 1.64006 0.622936)
      (xy 1.649044 0.654823)
      (xy 1.737523 0.843843)
      (xy 1.864414 1.001697)
      (xy 2.021813 1.124856)
      (xy 2.201814 1.209788)
      (xy 2.396512 1.252963)
      (xy 2.477021 1.252119)
      (xy 2.477021 0.827659)
      (xy 2.360861 0.804094)
      (xy 2.245323 0.741323)
      (xy 2.148645 0.651231)
      (xy 2.105479 0.585498)
      (xy 2.069179 0.499652)
      (xy 2.047439 0.421478)
      (xy 2.044681 0.395319)
      (xy 2.056787 0.329749)
      (xy 2.087409 0.244131)
      (xy 2.105479 0.20514)
      (xy 2.180803 0.1039)
      (xy 2.286525 0.02246)
      (xy 2.40441 -0.027295)
      (xy 2.477021 -0.037022)
      (xy 2.593182 -0.013456)
      (xy 2.708719 0.049315)
      (xy 2.805397 0.139407)
      (xy 2.848564 0.20514)
      (xy 2.884863 0.290986)
      (xy 2.906603 0.36916)
      (xy 2.909362 0.395319)
      (xy 2.885797 0.511479)
      (xy 2.823025 0.627017)
      (xy 2.732933 0.723695)
      (xy 2.6672 0.766861)
      (xy 2.581354 0.803161)
      (xy 2.50318 0.824901)
      (xy 2.477021 0.827659)
      (xy 2.477021 1.252119)
      (xy 2.598002 1.250851)
      (xy 2.79838 1.199921)
      (xy 2.835257 1.184618)
      (xy 2.964367 1.106834)
      (xy 3.092418 0.994499)
      (xy 3.202305 0.864665)
      (xy 3.26929 0.751901)
      (xy 3.3112 0.614794)
      (xy 3.330039 0.449912)
    ) (layer "B.SilkS") (width 0) (fill solid) (tstamp 44313c2c-fe6a-4a8d-a40d-673c83f27e93))
  (fp_poly (pts
      (xy -0.549362 -2.631064)
      (xy -0.549362 1.26)
      (xy 1.18 1.26)
      (xy 1.18 -2.631064)
    ) (layer "B.SilkS") (width 0) (fill solid) (tstamp 5fe657b0-c306-4bb6-ba5c-a407ea813be0))
  (fp_poly (pts
      (xy 4.638723 0.395319)
      (xy 4.638723 0.827659)
      (xy 5.071064 0.827659)
      (xy 5.071064 0.395319)
    ) (layer "B.SilkS") (width 0) (fill solid) (tstamp 721ca48d-6079-4713-92e4-7a90094a6c22))
  (fp_poly (pts
      (xy 2.477021 6.880425)
      (xy 2.477021 6.448085)
      (xy 3.341702 6.448085)
      (xy 3.341702 6.015744)
      (xy 2.477021 6.015744)
      (xy 2.477021 5.583404)
      (xy 3.341702 5.583404)
      (xy 3.341702 5.151064)
      (xy 2.477021 5.151064)
      (xy 2.477021 4.718723)
      (xy 3.341702 4.718723)
      (xy 3.341702 4.286383)
      (xy 2.477021 4.286383)
      (xy 2.477021 3.854042)
      (xy 3.341702 3.854042)
      (xy 3.341702 3.421702)
      (xy 2.48823 3.421702)
      (xy 2.456718 3.303883)
      (xy 2.401026 3.185873)
      (xy 2.309415 3.085733)
      (xy 2.197113 3.018012)
      (xy 2.139833 3.001198)
      (xy 2.044681 2.983347)
      (xy 2.044681 2.124681)
      (xy 1.61234 2.124681)
      (xy 1.61234 2.989361)
      (xy 1.18 2.989361)
      (xy 1.18 2.124681)
      (xy 0.747659 2.124681)
      (xy 0.747659 2.989361)
      (xy 0.315319 2.989361)
      (xy 0.315319 2.124681)
      (xy -0.117021 2.124681)
      (xy -0.117021 2.989361)
      (xy -0.549362 2.989361)
      (xy -0.549362 2.124681)
      (xy -0.981702 2.124681)
      (xy -0.981702 2.989361)
      (xy -1.414043 2.989361)
      (xy -1.414043 2.124681)
      (xy -1.846383 2.124681)
      (xy -1.846383 2.983347)
      (xy -1.941535 3.001198)
      (xy -2.058382 3.047995)
      (xy -2.161914 3.134254)
      (xy -2.2369 3.245428)
      (xy -2.258421 3.303883)
      (xy -2.289932 3.421702)
      (xy -3.143404 3.421702)
      (xy -3.143404 3.854042)
      (xy -2.278724 3.854042)
      (xy -2.278724 4.286383)
      (xy -3.143404 4.286383)
      (xy -3.143404 4.718723)
      (xy -2.278724 4.718723)
      (xy -2.278724 5.151064)
      (xy -3.143404 5.151064)
      (xy -3.143404 5.583404)
      (xy -2.278724 5.583404)
      (xy -2.278724 6.015744)
      (xy -3.143404 6.015744)
      (xy -3.143404 6.448085)
      (xy -2.278724 6.448085)
      (xy -2.278724 6.880425)
      (xy -3.143404 6.880425)
      (xy -3.143404 7.312766)
      (xy -2.284738 7.312766)
      (xy -2.266887 7.407918)
      (xy -2.22009 7.524765)
      (xy -2.133831 7.628297)
      (xy -2.022657 7.703283)
      (xy -1.964202 7.724803)
      (xy -1.846383 7.756315)
      (xy -1.846383 7.312766)
      (xy -1.846383 3.421702)
      (xy 2.044681 3.421702)
      (xy 2.044681 7.312766)
      (xy -1.846383 7.312766)
      (xy -1.846383 7.756315)
      (xy -1.846383 8.609787)
      (xy -1.414043 8.609787)
      (xy -1.414043 7.745106)
      (xy -0.981702 7.745106)
      (xy -0.981702 8.609787)
      (xy -0.549362 8.609787)
      (xy -0.549362 7.745106)
      (xy -0.117021 7.745106)
      (xy -0.117021 8.609787)
      (xy 0.315319 8.609787)
      (xy 0.315319 7.745106)
      (xy 0.747659 7.745106)
      (xy 0.747659 8.609787)
      (xy 1.18 8.609787)
      (xy 1.18 7.745106)
      (xy 1.61234 7.745106)
      (xy 1.61234 8.609787)
      (xy 2.044681 8.609787)
      (xy 2.044681 7.745106)
      (xy 2.108238 7.745106)
      (xy 2.195464 7.722214)
      (xy 2.289201 7.662463)
      (xy 2.376062 7.57924)
      (xy 2.44266 7.485932)
      (xy 2.475608 7.395925)
      (xy 2.477021 7.376323)
      (xy 2.477021 7.312766)
      (xy 3.341702 7.312766)
      (xy 3.341702 6.880425)
    ) (layer "B.SilkS") (width 0) (fill solid) (tstamp 7347b103-c5ac-49f5-8625-026a1bf387f0))
  (fp_poly (pts
      (xy 4.638723 -1.334043)
      (xy 4.638723 -0.901702)
      (xy 5.071064 -0.901702)
      (xy 5.071064 -1.334043)
    ) (layer "B.SilkS") (width 0) (fill solid) (tstamp 77343270-aa9a-4df6-9a51-c5fec96110ac))
  (fp_poly (pts
      (xy 3.325808 -1.883351)
      (xy 3.298506 -2.040494)
      (xy 3.26929 -2.122966)
      (xy 3.187034 -2.256404)
      (xy 3.070599 -2.387238)
      (xy 2.937695 -2.497761)
      (xy 2.833604 -2.558652)
      (xy 2.696496 -2.600562)
      (xy 2.531614 -2.619401)
      (xy 2.360053 -2.61517)
      (xy 2.20291 -2.587868)
      (xy 2.120439 -2.558652)
      (xy 1.988058 -2.477277)
      (xy 1.858815 -2.362614)
      (xy 1.74986 -2.231896)
      (xy 1.686861 -2.122966)
      (xy 1.646529 -1.992302)
      (xy 1.624356 -1.836241)
      (xy 1.621735 -1.677493)
      (xy 1.64006 -1.538766)
      (xy 1.649044 -1.506879)
      (xy 1.737523 -1.317859)
      (xy 1.864414 -1.160005)
      (xy 2.021813 -1.036846)
      (xy 2.201814 -0.951914)
      (xy 2.396512 -0.908739)
      (xy 2.477021 -0.909583)
      (xy 2.477021 -1.334043)
      (xy 2.360861 -1.357608)
      (xy 2.245323 -1.420379)
      (xy 2.148645 -1.510471)
      (xy 2.105479 -1.576204)
      (xy 2.069179 -1.66205)
      (xy 2.047439 -1.740224)
      (xy 2.044681 -1.766383)
      (xy 2.056787 -1.831954)
      (xy 2.087409 -1.917571)
      (xy 2.105479 -1.956562)
      (xy 2.180803 -2.057802)
      (xy 2.286525 -2.139242)
      (xy 2.40441 -2.188997)
      (xy 2.477021 -2.198724)
      (xy 2.593182 -2.175159)
      (xy 2.708719 -2.112387)
      (xy 2.805397 -2.022295)
      (xy 2.848564 -1.956562)
      (xy 2.884863 -1.870716)
      (xy 2.906603 -1.792542)
      (xy 2.909362 -1.766383)
      (xy 2.897255 -1.700813)
      (xy 2.866633 -1.615196)
      (xy 2.848564 -1.576204)
      (xy 2.773239 -1.474965)
      (xy 2.667517 -1.393525)
      (xy 2.549632 -1.34377)
      (xy 2.477021 -1.334043)
      (xy 2.477021 -0.909583)
      (xy 2.598002 -0.910851)
      (xy 2.79838 -0.961782)
      (xy 2.835257 -0.977084)
      (xy 2.964367 -1.054868)
      (xy 3.092418 -1.167204)
      (xy 3.202305 -1.297037)
      (xy 3.26929 -1.409801)
      (xy 3.3112 -1.546908)
      (xy 3.330039 -1.71179)
    ) (layer "B.SilkS") (width 0) (fill solid) (tstamp 7ca3bdb0-8c4d-4a77-86b2-77dc8d6f7055))
  (fp_poly (pts
      (xy 4.638723 -0.469362)
      (xy 4.638723 -0.037022)
      (xy 5.071064 -0.037022)
      (xy 5.071064 -0.469362)
    ) (layer "B.SilkS") (width 0) (fill solid) (tstamp 8e2ddb09-658b-43ac-a17d-c76959b9070a))
  (fp_poly (pts
      (xy -1.414043 3.854042)
      (xy -1.414043 6.880425)
      (xy 1.61234 6.880425)
      (xy 1.61234 3.854042)
    ) (layer "B.SilkS") (width 0) (fill solid) (tstamp cd4f9277-0c47-4ffe-a913-5105b2313e0c))
  (fp_line (start 11.21 -30.38) (end 11.21 24.02) (layer "F.SilkS") (width 0.127) (tstamp 3d294303-ff52-46e2-a15a-1f767749653e))
  (fp_line (start -14.09 -30.38) (end 11.21 -30.38) (layer "F.SilkS") (width 0.127) (tstamp 5c1a6ec6-bf1a-40b5-94ed-156ea8213f90))
  (fp_line (start -14.09 24.02) (end -14.09 -30.38) (layer "F.SilkS") (width 0.127) (tstamp 89b14e80-59b8-4207-b285-ae65a33ef639))
  (fp_line (start 11.21 24.02) (end -14.09 24.02) (layer "F.SilkS") (width 0.127) (tstamp d99b6e65-528e-4465-a65b-f4e439855546))
  (fp_circle (center 12.76 16.72) (end 12.66 16.72) (layer "F.SilkS") (width 0.2) (fill none) (tstamp b990260d-76a7-4bfe-a629-4e58b4869aba))
  (fp_poly (pts
      (xy -3.025925 8.142136)
      (xy -2.948162 7.989918)
      (xy -2.827381 7.858147)
      (xy -2.769489 7.814796)
      (xy -2.611909 7.73723)
      (xy -2.451084 7.707788)
      (xy -2.293397 7.721418)
      (xy -2.145234 7.773066)
      (xy -2.012977 7.85768)
      (xy -1.903012 7.970205)
      (xy -1.821723 8.10559)
      (xy -1.775492 8.25878)
      (xy -1.770706 8.424724)
      (xy -1.805912 8.577474)
      (xy -1.887826 8.732998)
      (xy -2.005409 8.856328)
      (xy -2.149218 8.944307)
      (xy -2.309815 8.993776)
      (xy -2.450553 9.000314)
      (xy -2.450553 8.561542)
      (xy -2.354797 8.553658)
      (xy -2.339045 8.547814)
      (xy -2.252281 8.487386)
      (xy -2.210841 8.401792)
      (xy -2.218158 8.300003)
      (xy -2.231194 8.265833)
      (xy -2.289842 8.192598)
      (xy -2.371617 8.156868)
      (xy -2.461245 8.158126)
      (xy -2.54345 8.195854)
      (xy -2.602956 8.269536)
      (xy -2.606947 8.278564)
      (xy -2.622657 8.375567)
      (xy -2.59489 8.462037)
      (xy -2.534053 8.527515)
      (xy -2.450553 8.561542)
      (xy -2.450553 9.000314)
      (xy -2.477756 9.001578)
      (xy -2.643603 8.964552)
      (xy -2.769489 8.899824)
      (xy -2.90681 8.778273)
      (xy -3.001114 8.632869)
      (xy -3.052402 8.472471)
      (xy -3.060672 8.30594)
    ) (layer "F.SilkS") (width 0) (fill solid) (tstamp 11435a32-3675-40ca-9eb3-8107160ae42f))
  (fp_poly (pts
      (xy 1.690396 -2.667371)
      (xy 1.690396 1.223693)
      (xy -0.038966 1.223693)
      (xy -0.038966 -2.667371)
    ) (layer "F.SilkS") (width 0) (fill solid) (tstamp 21052e7e-3e85-4fb7-99e5-7bc30eca3b07))
  (fp_poly (pts
      (xy -2.184774 0.242044)
      (xy -2.157472 0.084901)
      (xy -2.128256 0.00243)
      (xy -2.046 -0.131008)
      (xy -1.929565 -0.261843)
      (xy -1.796661 -0.372366)
      (xy -1.69257 -0.433257)
      (xy -1.555462 -0.475167)
      (xy -1.39058 -0.494006)
      (xy -1.219019 -0.489775)
      (xy -1.061876 -0.462473)
      (xy -0.979405 -0.433257)
      (xy -0.847024 -0.351882)
      (xy -0.717781 -0.237219)
      (xy -0.608826 -0.106501)
      (xy -0.545827 0.00243)
      (xy -0.505495 0.133093)
      (xy -0.483322 0.289154)
      (xy -0.480701 0.447902)
      (xy -0.499026 0.586629)
      (xy -0.50801 0.618516)
      (xy -0.596489 0.807536)
      (xy -0.72338 0.96539)
      (xy -0.880779 1.088549)
      (xy -1.06078 1.173481)
      (xy -1.255478 1.216656)
      (xy -1.335987 1.215812)
      (xy -1.335987 0.791352)
      (xy -1.219827 0.767787)
      (xy -1.104289 0.705016)
      (xy -1.007611 0.614924)
      (xy -0.964445 0.549191)
      (xy -0.928145 0.463345)
      (xy -0.906405 0.385171)
      (xy -0.903647 0.359012)
      (xy -0.915753 0.293442)
      (xy -0.946375 0.207824)
      (xy -0.964445 0.168833)
      (xy -1.039769 0.067593)
      (xy -1.145491 -0.013847)
      (xy -1.263376 -0.063602)
      (xy -1.335987 -0.073329)
      (xy -1.452148 -0.049763)
      (xy -1.567685 0.013008)
      (xy -1.664363 0.1031)
      (xy -1.70753 0.168833)
      (xy -1.743829 0.254679)
      (xy -1.765569 0.332853)
      (xy -1.768328 0.359012)
      (xy -1.744763 0.475172)
      (xy -1.681991 0.59071)
      (xy -1.591899 0.687388)
      (xy -1.526166 0.730554)
      (xy -1.44032 0.766854)
      (xy -1.362146 0.788594)
      (xy -1.335987 0.791352)
      (xy -1.335987 1.215812)
      (xy -1.456968 1.214544)
      (xy -1.657346 1.163614)
      (xy -1.694223 1.148311)
      (xy -1.823333 1.070527)
      (xy -1.951384 0.958192)
      (xy -2.061271 0.828358)
      (xy -2.128256 0.715594)
      (xy -2.170166 0.578487)
      (xy -2.189005 0.413605)
    ) (layer "F.SilkS") (width 0) (fill solid) (tstamp 5c3c9010-017f-4b6e-87d0-acd7547111fe))
  (fp_poly (pts
      (xy -1.335987 6.844118)
      (xy -1.335987 6.411778)
      (xy -2.200668 6.411778)
      (xy -2.200668 5.979437)
      (xy -1.335987 5.979437)
      (xy -1.335987 5.547097)
      (xy -2.200668 5.547097)
      (xy -2.200668 5.114757)
      (xy -1.335987 5.114757)
      (xy -1.335987 4.682416)
      (xy -2.200668 4.682416)
      (xy -2.200668 4.250076)
      (xy -1.335987 4.250076)
      (xy -1.335987 3.817735)
      (xy -2.200668 3.817735)
      (xy -2.200668 3.385395)
      (xy -1.347196 3.385395)
      (xy -1.315684 3.267576)
      (xy -1.259992 3.149566)
      (xy -1.168381 3.049426)
      (xy -1.056079 2.981705)
      (xy -0.998799 2.964891)
      (xy -0.903647 2.94704)
      (xy -0.903647 2.088374)
      (xy -0.471306 2.088374)
      (xy -0.471306 2.953054)
      (xy -0.038966 2.953054)
      (xy -0.038966 2.088374)
      (xy 0.393375 2.088374)
      (xy 0.393375 2.953054)
      (xy 0.825715 2.953054)
      (xy 0.825715 2.088374)
      (xy 1.258055 2.088374)
      (xy 1.258055 2.953054)
      (xy 1.690396 2.953054)
      (xy 1.690396 2.088374)
      (xy 2.122736 2.088374)
      (xy 2.122736 2.953054)
      (xy 2.555077 2.953054)
      (xy 2.555077 2.088374)
      (xy 2.987417 2.088374)
      (xy 2.987417 2.94704)
      (xy 3.082569 2.964891)
      (xy 3.199416 3.011688)
      (xy 3.302948 3.097947)
      (xy 3.377934 3.209121)
      (xy 3.399455 3.267576)
      (xy 3.430966 3.385395)
      (xy 4.284438 3.385395)
      (xy 4.284438 3.817735)
      (xy 3.419758 3.817735)
      (xy 3.419758 4.250076)
      (xy 4.284438 4.250076)
      (xy 4.284438 4.682416)
      (xy 3.419758 4.682416)
      (xy 3.419758 5.114757)
      (xy 4.284438 5.114757)
      (xy 4.284438 5.547097)
      (xy 3.419758 5.547097)
      (xy 3.419758 5.979437)
      (xy 4.284438 5.979437)
      (xy 4.284438 6.411778)
      (xy 3.419758 6.411778)
      (xy 3.419758 6.844118)
      (xy 4.284438 6.844118)
      (xy 4.284438 7.276459)
      (xy 3.425772 7.276459)
      (xy 3.407921 7.371611)
      (xy 3.361124 7.488458)
      (xy 3.274865 7.59199)
      (xy 3.163691 7.666976)
      (xy 3.105236 7.688496)
      (xy 2.987417 7.720008)
      (xy 2.987417 7.276459)
      (xy 2.987417 3.385395)
      (xy -0.903647 3.385395)
      (xy -0.903647 7.276459)
      (xy 2.987417 7.276459)
      (xy 2.987417 7.720008)
      (xy 2.987417 8.57348)
      (xy 2.555077 8.57348)
      (xy 2.555077 7.708799)
      (xy 2.122736 7.708799)
      (xy 2.122736 8.57348)
      (xy 1.690396 8.57348)
      (xy 1.690396 7.708799)
      (xy 1.258055 7.708799)
      (xy 1.258055 8.57348)
      (xy 0.825715 8.57348)
      (xy 0.825715 7.708799)
      (xy 0.393375 7.708799)
      (xy 0.393375 8.57348)
      (xy -0.038966 8.57348)
      (xy -0.038966 7.708799)
      (xy -0.471306 7.708799)
      (xy -0.471306 8.57348)
      (xy -0.903647 8.57348)
      (xy -0.903647 7.708799)
      (xy -0.967204 7.708799)
      (xy -1.05443 7.685907)
      (xy -1.148167 7.626156)
      (xy -1.235028 7.542933)
      (xy -1.301626 7.449625)
      (xy -1.334574 7.359618)
      (xy -1.335987 7.340016)
      (xy -1.335987 7.276459)
      (xy -2.200668 7.276459)
      (xy -2.200668 6.844118)
    ) (layer "F.SilkS") (width 0) (fill solid) (tstamp 72516129-70eb-4285-bf1b-1abdc1c1acc2))
  (fp_poly (pts
      (xy 2.555077 3.817735)
      (xy 2.555077 6.844118)
      (xy -0.471306 6.844118)
      (xy -0.471306 3.817735)
    ) (layer "F.SilkS") (width 0) (fill solid) (tstamp 74bfa102-22a7-4fff-8158-aa60bd312472))
  (fp_poly (pts
      (xy -4.781172 -0.901376)
      (xy -4.780454 -1.137484)
      (xy -4.778661 -1.333029)
      (xy -4.775336 -1.492502)
      (xy -4.770025 -1.620397)
      (xy -4.762273 -1.721207)
      (xy -4.751624 -1.799424)
      (xy -4.737624 -1.859541)
      (xy -4.719817 -1.90605)
      (xy -4.697748 -1.943445)
      (xy -4.670963 -1.976218)
      (xy -4.639005 -2.008862)
      (xy -4.603483 -2.043803)
      (xy -4.502408 -2.129973)
      (xy -4.3954 -2.185512)
      (xy -4.26557 -2.217182)
      (xy -4.139445 -2.229554)
      (xy -3.93003 -2.241974)
      (xy -3.93003 -2.424805)
      (xy -3.905056 -2.66222)
      (xy -3.833289 -2.883839)
      (xy -3.719465 -3.083033)
      (xy -3.568317 -3.253177)
      (xy -3.384578 -3.387644)
      (xy -3.177343 -3.478455)
      (xy -3.151745 -3.486094)
      (xy -3.124541 -3.49297)
      (xy -3.092904 -3.499124)
      (xy -3.054006 -3.504597)
      (xy -3.005017 -3.509427)
      (xy -2.943112 -3.513655)
      (xy -2.86546 -3.517321)
      (xy -2.769235 -3.520465)
      (xy -2.651607 -3.523127)
      (xy -2.50975 -3.525348)
      (xy -2.340834 -3.527166)
      (xy -2.142032 -3.528622)
      (xy -1.910516 -3.529757)
      (xy -1.643458 -3.53061)
      (xy -1.338029 -3.531221)
      (xy -0.991401 -3.53163)
      (xy -0.600747 -3.531878)
      (xy -0.163238 -3.532004)
      (xy 0.323954 -3.532048)
      (xy 0.609545 -3.532052)
      (xy 1.124824 -3.532035)
      (xy 1.588889 -3.531959)
      (xy 2.004568 -3.531782)
      (xy 2.374688 -3.531465)
      (xy 2.702078 -3.530968)
      (xy 2.989566 -3.530251)
      (xy 3.23998 -3.529274)
      (xy 3.456148 -3.527997)
      (xy 3.640898 -3.52638)
      (xy 3.797058 -3.524382)
      (xy 3.927457 -3.521964)
      (xy 4.034922 -3.519086)
      (xy 4.122282 -3.515707)
      (xy 4.192364 -3.511789)
      (xy 4.247997 -3.50729)
      (xy 4.292009 -3.50217)
      (xy 4.327228 -3.49639)
      (xy 4.356481 -3.48991)
      (xy 4.382598 -3.482689)
      (xy 4.396432 -3.478455)
      (xy 4.600818 -3.387513)
      (xy 4.784553 -3.252889)
      (xy 4.938524 -3.083698)
      (xy 5.053615 -2.889055)
      (xy 5.095523 -2.779365)
      (xy 5.101621 -2.759036)
      (xy 5.107238 -2.737252)
      (xy 5.112392 -2.711817)
      (xy 5.117103 -2.680533)
      (xy 5.12139 -2.641206)
      (xy 5.125271 -2.591639)
      (xy 5.128767 -2.529636)
      (xy 5.131896 -2.453001)
      (xy 5.134677 -2.359537)
      (xy 5.137131 -2.247048)
      (xy 5.139275 -2.113339)
      (xy 5.141129 -1.956212)
      (xy 5.142713 -1.773472)
      (xy 5.144045 -1.562923)
      (xy 5.145145 -1.322368)
      (xy 5.146032 -1.049612)
      (xy 5.146725 -0.742458)
      (xy 5.147243 -0.398709)
      (xy 5.147606 -0.01617)
      (xy 5.147832 0.407355)
      (xy 5.147941 0.874063)
      (xy 5.147953 1.386149)
      (xy 5.147886 1.945811)
      (xy 5.147759 2.555244)
      (xy 5.147601 3.178826)
      (xy 5.147419 3.837571)
      (xy 5.147217 4.444465)
      (xy 5.146977 5.0017)
      (xy 5.146678 5.511469)
      (xy 5.146301 5.975963)
      (xy 5.145827 6.397375)
      (xy 5.145234 6.777896)
      (xy 5.144505 7.119718)
      (xy 5.143618 7.425034)
      (xy 5.142554 7.696035)
      (xy 5.141294 7.934914)
      (xy 5.139818 8.143862)
      (xy 5.138106 8.325071)
      (xy 5.136138 8.480734)
      (xy 5.133894 8.613042)
      (xy 5.131356 8.724188)
      (xy 5.128502 8.816362)
      (xy 5.125314 8.891758)
      (xy 5.121772 8.952568)
      (xy 5.117855 9.000983)
      (xy 5.113545 9.039195)
      (xy 5.108821 9.069396)
      (xy 5.103664 9.093779)
      (xy 5.098054 9.114535)
      (xy 5.09406 9.127416)
      (xy 5.003017 9.326989)
      (xy 4.86843 9.507712)
      (xy 4.719624 9.642257)
      (xy 4.719624 -0.938009)
      (xy 4.711446 -1.782424)
      (xy 4.708884 -2.021382)
      (xy 4.706073 -2.212503)
      (xy 4.702625 -2.361995)
      (xy 4.698154 -2.476064)
      (xy 4.692272 -2.560916)
      (xy 4.684593 -2.622758)
      (xy 4.674729 -2.667795)
      (xy 4.662293 -2.702236)
      (xy 4.652896 -2.721414)
      (xy 4.537443 -2.884025)
      (xy 4.386869 -3.007757)
      (xy 4.351992 -3.027878)
      (xy 4.319395 -3.044237)
      (xy 4.284657 -3.057309)
      (xy 4.241446 -3.067535)
      (xy 4.183426 -3.075357)
      (xy 4.104263 -3.081217)
      (xy 3.997625 -3.085559)
      (xy 3.857177 -3.088823)
      (xy 3.676585 -3.091453)
      (xy 3.449516 -3.09389)
      (xy 3.399492 -3.094379)
      (xy 2.555077 -3.102557)
      (xy 2.555077 -0.938009)
      (xy 4.719624 -0.938009)
      (xy 4.719624 9.642257)
      (xy 4.7 9.66)
      (xy 4.507423 9.774267)
      (xy 4.396432 9.816905)
      (xy 4.370834 9.824543)
      (xy 4.343631 9.83142)
      (xy 4.311994 9.837574)
      (xy 4.273095 9.843046)
      (xy 4.224107 9.847876)
      (xy 4.162201 9.852104)
      (xy 4.08455 9.85577)
      (xy 3.988324 9.858914)
      (xy 3.870697 9.861577)
      (xy 3.728839 9.863797)
      (xy 3.559924 9.865615)
      (xy 3.361122 9.867072)
      (xy 3.129606 9.868206)
      (xy 2.862547 9.869059)
      (xy 2.557118 9.86967)
      (xy 2.21049 9.87008)
      (xy 1.819836 9.870327)
      (xy 1.382327 9.870453)
      (xy 0.895135 9.870497)
      (xy 0.609545 9.870501)
      (xy 0.609545 9.42465)
      (xy 1.1265 9.424628)
      (xy 1.592171 9.424538)
      (xy 2.009315 9.424342)
      (xy 2.38069 9.424002)
      (xy 2.709054 9.423483)
      (xy 2.997164 9.422745)
      (xy 3.247779 9.421753)
      (xy 3.463657 9.420469)
      (xy 3.647555 9.418855)
      (xy 3.802231 9.416875)
      (xy 3.930443 9.414491)
      (xy 4.034949 9.411666)
      (xy 4.118506 9.408362)
      (xy 4.183873 9.404543)
      (xy 4.233808 9.400171)
      (xy 4.271068 9.395209)
      (xy 4.298411 9.389619)
      (xy 4.318595 9.383365)
      (xy 4.334378 9.376409)
      (xy 4.338481 9.374278)
      (xy 4.500987 9.259735)
      (xy 4.620795 9.11239)
      (xy 4.691532 8.951953)
      (xy 4.69374 8.918089)
      (xy 4.695908 8.832981)
      (xy 4.698023 8.699425)
      (xy 4.700072 8.520219)
      (xy 4.702041 8.298161)
      (xy 4.703917 8.036048)
      (xy 4.705686 7.736677)
      (xy 4.707334 7.402846)
      (xy 4.708849 7.037354)
      (xy 4.710216 6.642996)
      (xy 4.711423 6.222571)
      (xy 4.712455 5.778876)
      (xy 4.7133 5.314709)
      (xy 4.713944 4.832867)
      (xy 4.714374 4.336148)
      (xy 4.714456 4.189278)
      (xy 4.716779 -0.505669)
      (xy 2.122736 -0.505669)
      (xy 2.122736 -3.100773)
      (xy -0.45104 -3.093487)
      (xy -0.882352 -3.092228)
      (xy -1.262931 -3.090995)
      (xy -1.59609 -3.089717)
      (xy -1.885138 -3.088322)
      (xy -2.133388 -3.086738)
      (xy -2.344149 -3.084895)
      (xy -2.520732 -3.08272)
      (xy -2.666449 -3.080141)
      (xy -2.784609 -3.077089)
      (xy -2.878525 -3.07349)
      (xy -2.951506 -3.069273)
      (xy -3.006864 -3.064367)
      (xy -3.047908 -3.0587)
      (xy -3.077951 -3.052201)
      (xy -3.100303 -3.044799)
      (xy -3.118275 -3.03642)
      (xy -3.119391 -3.035829)
      (xy -3.27717 -2.927358)
      (xy -3.390199 -2.791972)
      (xy -3.461085 -2.625459)
      (xy -3.491769 -2.434599)
      (xy -3.504326 -2.242359)
      (xy -3.291593 -2.229746)
      (xy -3.132802 -2.212201)
      (xy -3.010152 -2.176762)
      (xy -2.906924 -2.116778)
      (xy -2.824236 -2.043803)
      (xy -2.786949 -2.007127)
      (xy -2.755267 -1.974586)
      (xy -2.728733 -1.941686)
      (xy -2.706893 -1.903934)
      (xy -2.689291 -1.856838)
      (xy -2.675473 -1.795906)
      (xy -2.664984 -1.716644)
      (xy -2.657367 -1.614559)
      (xy -2.652169 -1.48516)
      (xy -2.648933 -1.323953)
      (xy -2.647206 -1.126446)
      (xy -2.646531 -0.888146)
      (xy -2.646454 -0.604559)
      (xy -2.646519 -0.289499)
      (xy -2.64645 0.041215)
      (xy -2.646547 0.322379)
      (xy -2.647265 0.558487)
      (xy -2.649058 0.754031)
      (xy -2.652383 0.913505)
      (xy -2.657694 1.0414)
      (xy -2.665446 1.14221)
      (xy -2.676095 1.220426)
      (xy -2.690095 1.280543)
      (xy -2.707902 1.327053)
      (xy -2.729971 1.364448)
      (xy -2.756756 1.397221)
      (xy -2.788714 1.429865)
      (xy -2.824236 1.464806)
      (xy -2.925162 1.550879)
      (xy -3.031979 1.606389)
      (xy -3.161559 1.638084)
      (xy -3.288654 1.650579)
      (xy -3.498449 1.663021)
      (xy -3.491314 5.314155)
      (xy -3.490279 5.832426)
      (xy -3.489274 6.299405)
      (xy -3.488257 6.717842)
      (xy -3.487187 7.09049)
      (xy -3.48602 7.420097)
      (xy -3.484715 7.709414)
      (xy -3.48323 7.961193)
      (xy -3.481522 8.178184)
      (xy -3.479548 8.363137)
      (xy -3.477268 8.518803)
      (xy -3.474637 8.647933)
      (xy -3.471616 8.753277)
      (xy -3.46816 8.837586)
      (xy -3.464228 8.90361)
      (xy -3.459777 8.954101)
      (xy -3.454766 8.991808)
      (xy -3.449152 9.019482)
      (xy -3.442893 9.039875)
      (xy -3.435946 9.055736)
      (xy -3.433807 9.059863)
      (xy -3.318354 9.222475)
      (xy -3.167779 9.346206)
      (xy -3.132902 9.366327)
      (xy -3.024817 9.42465)
      (xy 0.609545 9.42465)
      (xy 0.609545 9.870501)
      (xy 0.094265 9.870485)
      (xy -0.3698 9.870408)
      (xy -0.785478 9.870231)
      (xy -1.155598 9.869915)
      (xy -1.482988 9.869418)
      (xy -1.770476 9.868701)
      (xy -2.02089 9.867724)
      (xy -2.237058 9.866446)
      (xy -2.421809 9.864829)
      (xy -2.577969 9.862831)
      (xy -2.708368 9.860413)
      (xy -2.815833 9.857535)
      (xy -2.903193 9.854157)
      (xy -2.973275 9.850238)
      (xy -3.028908 9.845739)
      (xy -3.07292 9.840619)
      (xy -3.108138 9.83484)
      (xy -3.137392 9.828359)
      (xy -3.163508 9.821138)
      (xy -3.177343 9.816905)
      (xy -3.381728 9.725963)
      (xy -3.565464 9.591338)
      (xy -3.71386 9.428273)
      (xy -3.71386 1.223693)
      (xy -3.521365 1.222285)
      (xy -3.375504 1.217122)
      (xy -3.268917 1.206799)
      (xy -3.194246 1.189908)
      (xy -3.144131 1.165043)
      (xy -3.111215 1.130798)
      (xy -3.096953 1.10577)
      (xy -3.090162 1.064945)
      (xy -3.084203 0.976528)
      (xy -3.079079 0.846962)
      (xy -3.074795 0.682691)
      (xy -3.071353 0.49016)
      (xy -3.068757 0.27581)
      (xy -3.067012 0.046087)
      (xy -3.066121 -0.192566)
      (xy -3.066087 -0.433705)
      (xy -3.066915 -0.670887)
      (xy -3.068607 -0.897668)
      (xy -3.071169 -1.107603)
      (xy -3.074603 -1.29425)
      (xy -3.078913 -1.451164)
      (xy -3.084103 -1.571902)
      (xy -3.090176 -1.65002)
      (xy -3.09535 -1.676843)
      (xy -3.120899 -1.719738)
      (xy -3.158015 -1.751808)
      (xy -3.214112 -1.774562)
      (xy -3.296608 -1.789511)
      (xy -3.41292 -1.798163)
      (xy -3.570463 -1.802026)
      (xy -3.71386 -1.80269)
      (xy -3.905745 -1.801343)
      (xy -4.05105 -1.796297)
      (xy -4.157189 -1.786042)
      (xy -4.231581 -1.769069)
      (xy -4.281641 -1.743869)
      (xy -4.314787 -1.708933)
      (xy -4.332369 -1.676843)
      (xy -4.339481 -1.634302)
      (xy -4.345684 -1.544215)
      (xy -4.350978 -1.41307)
      (xy -4.355364 -1.247357)
      (xy -4.358842 -1.053563)
      (xy -4.36141 -0.838178)
      (xy -4.363071 -0.60769)
      (xy -4.363823 -0.368589)
      (xy -4.363666 -0.127362)
      (xy -4.362601 0.109501)
      (xy -4.360627 0.335512)
      (xy -4.357745 0.544182)
      (xy -4.353954 0.729023)
      (xy -4.349254 0.883545)
      (xy -4.343647 1.00126)
      (xy -4.33713 1.07568)
      (xy -4.332369 1.097846)
      (xy -4.30682 1.14074)
      (xy -4.269705 1.17281)
      (xy -4.213607 1.195565)
      (xy -4.131111 1.210514)
      (xy -4.014799 1.219165)
      (xy -3.857256 1.223029)
      (xy -3.71386 1.223693)
      (xy -3.71386 9.428273)
      (xy -3.719435 9.422147)
      (xy -3.834525 9.227505)
      (xy -3.876433 9.117815)
      (xy -3.884045 9.092307)
      (xy -3.890901 9.065196)
      (xy -3.897039 9.033664)
      (xy -3.902499 8.994895)
      (xy -3.907322 8.946072)
      (xy -3.911546 8.884377)
      (xy -3.915212 8.806995)
      (xy -3.918358 8.711107)
      (xy -3.921025 8.593898)
      (xy -3.923252 8.452551)
      (xy -3.925078 8.284247)
      (xy -3.926543 8.086172)
      (xy -3.927688 7.855508)
      (xy -3.92855 7.589437)
      (xy -3.929171 7.285144)
      (xy -3.929589 6.93981)
      (xy -3.929844 6.550621)
      (xy -3.929976 6.114757)
      (xy -3.930024 5.629404)
      (xy -3.93003 5.304531)
      (xy -3.93003 1.662977)
      (xy -4.139445 1.650557)
      (xy -4.298352 1.632658)
      (xy -4.421434 1.596094)
      (xy -4.52558 1.534104)
      (xy -4.603483 1.464806)
      (xy -4.64077 1.42813)
      (xy -4.672452 1.395588)
      (xy -4.698986 1.362688)
      (xy -4.720826 1.324937)
      (xy -4.738428 1.277841)
      (xy -4.752246 1.216908)
      (xy -4.762735 1.137646)
      (xy -4.770352 1.035562)
      (xy -4.77555 0.906163)
      (xy -4.778786 0.744956)
      (xy -4.780513 0.547449)
      (xy -4.781188 0.309148)
      (xy -4.781265 0.025562)
      (xy -4.7812 -0.289499)
      (xy -4.781269 -0.620212)
    ) (layer "F.SilkS") (width 0) (fill solid) (tstamp 75042ad0-fd45-443c-b109-5f3990c3dac6))
  (fp_poly (pts
      (xy -3.497689 0.359012)
      (xy -3.497689 0.791352)
      (xy -3.93003 0.791352)
      (xy -3.93003 0.359012)
    ) (layer "F.SilkS") (width 0) (fill solid) (tstamp 84c5db51-5d1c-4500-8281-bb0a34c61a4e))
  (fp_poly (pts
      (xy -2.184774 -1.919658)
      (xy -2.157472 -2.076801)
      (xy -2.128256 -2.159273)
      (xy -2.046 -2.292711)
      (xy -1.929565 -2.423545)
      (xy -1.796661 -2.534068)
      (xy -1.69257 -2.594959)
      (xy -1.555462 -2.636869)
      (xy -1.39058 -2.655708)
      (xy -1.219019 -2.651477)
      (xy -1.061876 -2.624175)
      (xy -0.979405 -2.594959)
      (xy -0.847024 -2.513584)
      (xy -0.717781 -2.398921)
      (xy -0.608826 -2.268203)
      (xy -0.545827 -2.159273)
      (xy -0.505495 -2.028609)
      (xy -0.483322 -1.872548)
      (xy -0.480701 -1.7138)
      (xy -0.499026 -1.575073)
      (xy -0.50801 -1.543186)
      (xy -0.596489 -1.354166)
      (xy -0.72338 -1.196312)
      (xy -0.880779 -1.073153)
      (xy -1.06078 -0.988221)
      (xy -1.255478 -0.945046)
      (xy -1.335987 -0.94589)
      (xy -1.335987 -1.37035)
      (xy -1.219827 -1.393915)
      (xy -1.104289 -1.456686)
      (xy -1.007611 -1.546778)
      (xy -0.964445 -1.612511)
      (xy -0.928145 -1.698357)
      (xy -0.906405 -1.776531)
      (xy -0.903647 -1.80269)
      (xy -0.915753 -1.868261)
      (xy -0.946375 -1.953878)
      (xy -0.964445 -1.992869)
      (xy -1.039769 -2.094109)
      (xy -1.145491 -2.175549)
      (xy -1.263376 -2.225304)
      (xy -1.335987 -2.235031)
      (xy -1.452148 -2.211466)
      (xy -1.567685 -2.148694)
      (xy -1.664363 -2.058602)
      (xy -1.70753 -1.992869)
      (xy -1.743829 -1.907023)
      (xy -1.765569 -1.828849)
      (xy -1.768328 -1.80269)
      (xy -1.756221 -1.73712)
      (xy -1.725599 -1.651503)
      (xy -1.70753 -1.612511)
      (xy -1.632205 -1.511272)
      (xy -1.526483 -1.429832)
      (xy -1.408598 -1.380077)
      (xy -1.335987 -1.37035)
      (xy -1.335987 -0.94589)
      (xy -1.456968 -0.947158)
      (xy -1.657346 -0.998089)
      (xy -1.694223 -1.013391)
      (xy -1.823333 -1.091175)
      (xy -1.951384 -1.203511)
      (xy -2.061271 -1.333344)
      (xy -2.128256 -1.446108)
      (xy -2.170166 -1.583215)
      (xy -2.189005 -1.748097)
    ) (layer "F.SilkS") (width 0) (fill solid) (tstamp 85247e37-9af9-40f3-8c5f-fcbeaec6d92d))
  (fp_poly (pts
      (xy -3.497689 -1.37035)
      (xy -3.497689 -0.938009)
      (xy -3.93003 -0.938009)
      (xy -3.93003 -1.37035)
    ) (layer "F.SilkS") (width 0) (fill solid) (tstamp 8df401e5-94cc-42ab-a7a8-feb24bfe0028))
  (fp_poly (pts
      (xy -3.497689 -0.505669)
      (xy -3.497689 -0.073329)
      (xy -3.93003 -0.073329)
      (xy -3.93003 -0.505669)
    ) (layer "F.SilkS") (width 0) (fill solid) (tstamp b16d75be-20f3-4907-b8fe-e5004df9f6f1))
  (fp_poly (pts
      (xy 2.570971 0.674385)
      (xy 2.598273 0.517241)
      (xy 2.627488 0.43477)
      (xy 2.709744 0.301332)
      (xy 2.826179 0.170497)
      (xy 2.959084 0.059975)
      (xy 3.063175 -0.000917)
      (xy 3.200282 -0.042827)
      (xy 3.365164 -0.061666)
      (xy 3.536725 -0.057434)
      (xy 3.693869 -0.030132)
      (xy 3.77634 -0.000917)
      (xy 3.908721 0.080458)
      (xy 4.037964 0.195121)
      (xy 4.146919 0.325839)
      (xy 4.209918 0.43477)
      (xy 4.25025 0.565434)
      (xy 4.272423 0.721494)
      (xy 4.275044 0.880243)
      (xy 4.256719 1.01897)
      (xy 4.247735 1.050857)
      (xy 4.159256 1.239876)
      (xy 4.032364 1.397731)
      (xy 3.874966 1.520889)
      (xy 3.694965 1.605821)
      (xy 3.500266 1.648997)
      (xy 3.419758 1.648153)
      (xy 3.419758 1.223693)
      (xy 3.485328 1.211586)
      (xy 3.570945 1.180964)
      (xy 3.609936 1.162895)
      (xy 3.711176 1.087571)
      (xy 3.792616 0.981848)
      (xy 3.842371 0.863963)
      (xy 3.852098 0.791352)
      (xy 3.839992 0.725782)
      (xy 3.809369 0.640165)
      (xy 3.7913 0.601174)
      (xy 3.715976 0.499934)
      (xy 3.610253 0.418494)
      (xy 3.492368 0.368739)
      (xy 3.419758 0.359012)
      (xy 3.303597 0.382577)
      (xy 3.18806 0.445348)
      (xy 3.091381 0.53544)
      (xy 3.048215 0.601174)
      (xy 3.011915 0.68702)
      (xy 2.990175 0.765193)
      (xy 2.987417 0.791352)
      (xy 2.999523 0.856923)
      (xy 3.030146 0.94254)
      (xy 3.048215 0.981531)
      (xy 3.123539 1.082771)
      (xy 3.229262 1.164211)
      (xy 3.347147 1.213966)
      (xy 3.419758 1.223693)
      (xy 3.419758 1.648153)
      (xy 3.298776 1.646884)
      (xy 3.098399 1.595954)
      (xy 3.061521 1.580651)
      (xy 2.932412 1.502867)
      (xy 2.804361 1.390532)
      (xy 2.694474 1.260698)
      (xy 2.627488 1.147935)
      (xy 2.585579 1.010827)
      (xy 2.566739 0.845945)
    ) (layer "F.SilkS") (width 0) (fill solid) (tstamp b9d2302b-6d66-4352-9855-6a6fb1b2108b))
  (fp_poly (pts
      (xy 3.010186 -2.168308)
      (xy 3.03947 -2.283922)
      (xy 3.096947 -2.384065)
      (xy 3.178645 -2.476144)
      (xy 3.280564 -2.565059)
      (xy 3.381428 -2.619398)
      (xy 3.499598 -2.646253)
      (xy 3.635928 -2.652788)
      (xy 3.785375 -2.644602)
      (xy 3.900989 -2.615318)
      (xy 4.001132 -2.557841)
      (xy 4.093211 -2.476144)
      (xy 4.158334 -2.401367)
      (xy 4.21262 -2.323186)
      (xy 4.22123 -2.307693)
      (xy 4.255003 -2.205861)
      (xy 4.273009 -2.075593)
      (xy 4.273982 -1.940511)
      (xy 4.256655 -1.824239)
      (xy 4.248512 -1.798697)
      (xy 4.16306 -1.639268)
      (xy 4.044481 -1.515007)
      (xy 3.901542 -1.427891)
      (xy 3.743009 -1.379894)
      (xy 3.57765 -1.372994)
      (xy 3.414232 -1.409166)
      (xy 3.261521 -1.490386)
      (xy 3.181933 -1.558289)
      (xy 3.091668 -1.661133)
      (xy 3.036441 -1.761653)
      (xy 3.008983 -1.878452)
      (xy 3.002001 -2.01886)
    ) (layer "F.SilkS") (width 0) (fill solid) (tstamp ff21bb4e-fe38-4b41-84b8-4ee9fefd8632))
  (fp_line (start -14.34 24.27) (end -14.34 -30.63) (layer "F.CrtYd") (width 0.05) (tstamp 130dde33-985f-4299-95cb-17046bef988d))
  (fp_line (start 11.46 -30.63) (end 11.46 24.27) (layer "F.CrtYd") (width 0.05) (tstamp 698f0762-62b8-4435-b35e-a64900f64be9))
  (fp_line (start -14.34 -30.63) (end 11.46 -30.63) (layer "F.CrtYd") (width 0.05) (tstamp 8dfd54bd-dcd5-452c-85ba-e69f50e5a25b))
  (fp_line (start 11.46 24.27) (end -14.34 24.27) (layer "F.CrtYd") (width 0.05) (tstamp d0c5f66d-e4b7-4162-86ef-2a51b4aba9b4))
  (fp_line (start -14.09 -30.38) (end 11.21 -30.38) (layer "F.Fab") (width 0.127) (tstamp 01380c79-fc2b-40c8-a6ad-f88f6b6324e5))
  (fp_line (start 11.21 24.02) (end -14.09 24.02) (layer "F.Fab") (width 0.127) (tstamp 5151c30e-f81b-49e2-b634-3618856eebe8))
  (fp_line (start 11.21 -30.38) (end 11.21 24.02) (layer "F.Fab") (width 0.127) (tstamp 5a8f63c5-827a-4f26-b5b0-9244cdce055d))
  (fp_line (start -14.09 24.02) (end -14.09 -30.38) (layer "F.Fab") (width 0.127) (tstamp d69aecc5-7243-4d52-be39-771eb34e0b82))
  (fp_circle (center 12.76 16.72) (end 12.66 16.72) (layer "F.Fab") (width 0.2) (fill none) (tstamp d51b7be3-bc83-48dc-b10a-f9d92b6408c6))
  (pad "1" thru_hole oval (at 9.96 16.58 180) (size 1.56 1.56) (drill 1.04) (layers *.Cu *.Mask) (tstamp 57bfd151-381c-49f6-a42b-b1c20cde7c2d))
  (pad "2" thru_hole circle (at 9.96 14.04 180) (size 1.56 1.56) (drill 1.04) (layers *.Cu *.Mask) (tstamp eeba683a-511e-44fe-a106-edf128041e5c))
  (pad "3" thru_hole circle (at 9.96 11.5 180) (size 1.56 1.56) (drill 1.04) (layers *.Cu *.Mask) (tstamp c889db61-1e43-4dbc-848f-938471ecadc4))
  (pad "4" thru_hole circle (at 9.96 8.96 180) (size 1.56 1.56) (drill 1.04) (layers *.Cu *.Mask) (tstamp ab3878a3-7cb2-4b5d-a2ed-42525a8e32da))
  (pad "5" thru_hole circle (at 9.96 6.42 180) (size 1.56 1.56) (drill 1.04) (layers *.Cu *.Mask) (tstamp d7664b77-83d3-43ea-b001-8b8f36a15160))
  (pad "6" thru_hole circle (at 9.96 3.88 180) (size 1.56 1.56) (drill 1.04) (layers *.Cu *.Mask) (tstamp fd0ad0d8-e5d1-4661-93e7-82c59eb3a452))
  (pad "7" thru_hole circle (at 9.96 1.34 180) (size 1.56 1.56) (drill 1.04) (layers *.Cu *.Mask) (tstamp dc49ee4a-174f-4768-9cb7-05339f4977ea))
  (pad "8" thru_hole circle (at 9.96 -1.2 180) (size 1.56 1.56) (drill 1.04) (layers *.Cu *.Mask) (tstamp 3cad34e9-1b59-4b0d-9371-12a7846d21e5))
  (pad "9" thru_hole circle (at 9.96 -3.74 180) (size 1.56 1.56) (drill 1.04) (layers *.Cu *.Mask) (tstamp 613c516f-8c1d-40a9-ba0f-f251ef5dc7d6))
  (pad "10" thru_hole circle (at 9.96 -6.28 180) (size 1.56 1.56) (drill 1.04) (layers *.Cu *.Mask) (tstamp c4c96f8f-62a6-4cc0-991e-e66bf64e9d4b))
  (pad "11" thru_hole circle (at 9.96 -8.82 180) (size 1.56 1.56) (drill 1.04) (layers *.Cu *.Mask) (tstamp 19b1ca28-c486-41b2-a08b-8af708cc861a))
  (pad "12" thru_hole circle (at 9.96 -11.36 180) (size 1.56 1.56) (drill 1.04) (layers *.Cu *.Mask) (tstamp 3b252373-f75e-493a-99ca-eacc410469ce))
  (pad "13" thru_hole circle (at 9.96 -13.9 180) (size 1.56 1.56) (drill 1.04) (layers *.Cu *.Mask) (tstamp 82df2871-0d6b-492e-8f7b-89e0f8e8770b))
  (pad "14" thru_hole roundrect (at 9.96 -16.44 180) (size 1.56 1.56) (drill 1.04) (layers *.Cu *.Mask) (roundrect_rratio 0.25) (tstamp 1ea8d1f1-a064-40aa-a282-ab91c855177d))
  (pad "15" thru_hole circle (at 9.96 -18.98 180) (size 1.56 1.56) (drill 1.04) (layers *.Cu *.Mask) (tstamp b6f4e924-91c8-48fe-8516-1afee6bd8ca8))
  (pad "16" thru_hole circle (at 9.96 -21.52 180) (size 1.56 1.56) (drill 1.04) (layers *.Cu *.Mask) (tstamp 36813007-9623-48ba-bff4-a7a860d7f3bb))
  (pad "17" thru_hole circle (at 9.96 -24.06 180) (size 1.56 1.56) (drill 1.04) (layers *.Cu *.Mask) (tstamp 5c325dcb-6158-4e2e-8494-b7a9bc137a88))
  (pad "18" thru_hole circle (at 9.96 -26.6 180) (size 1.56 1.56) (drill 1.04) (layers *.Cu *.Mask) (tstamp 268835e5-74b1-4805-916d-1099107fe214))
  (pad "19" thru_hole circle (at 9.96 -29.14 180) (size 1.56 1.56) (drill 1.04) (layers *.Cu *.Mask) (tstamp 6eae65e8-8e27-4678-bb40-4be9b40b2279))
  (pad "20" thru_hole circle (at -12.84 -29.14 180) (size 1.56 1.56) (drill 1.04) (layers *.Cu *.Mask) (tstamp 7e59672d-abe1-43a2-a4b1-41e1c37bbacf))
  (pad "21" thru_hole circle (at -12.84 -26.6 180) (size 1.56 1.56) (drill 1.04) (layers *.Cu *.Mask) (tstamp d1ced3a6-a2d6-48fd-be14-06ceb67327ee))
  (pad "22" thru_hole circle (at -12.84 -24.06 180) (size 1.56 1.56) (drill 1.04) (layers *.Cu *.Mask) (tstamp 2ef82f81-b529-439d-840f-1b638de09b5f))
  (pad "23" thru_hole circle (at -12.84 -21.52 180) (size 1.56 1.56) (drill 1.04) (layers *.Cu *.Mask) (tstamp 2bb84278-01e5-4499-b25c-c7d34ee9f7a5))
  (pad "24" thru_hole circle (at -12.84 -18.98 180) (size 1.56 1.56) (drill 1.04) (layers *.Cu *.Mask) (tstamp 800b244a-8ae4-40e3-98f5-020c1384e0cd))
  (pad "25" thru_hole circle (at -12.84 -16.44 180) (size 1.56 1.56) (drill 1.04) (layers *.Cu *.Mask) (tstamp 5068db01-55bd-4888-b96f-316da8789173))
  (pad "26" thru_hole circle (at -12.84 -13.9 180) (size 1.56 1.56) (drill 1.04) (layers *.Cu *.Mask) (tstamp 03f6ffc4-1dbf-4cf6-9553-1f0969549ac5))
  (pad "27" thru_hole circle (at -12.84 -11.36 180) (size 1.56 1.56) (drill 1.04) (layers *.Cu *.Mask) (tstamp 2bd7269b-890d-4ebf-93f5-51d0e98730b4))
  (pad "28" thru_hole circle (at -12.84 -8.82 180) (size 1.56 1.56) (drill 1.04) (layers *.Cu *.Mask) (tstamp 117d59f1-4de0-4b9f-9ada-49c465dddb74))
  (pad "29" thru_hole circle (at -12.84 -6.28 180) (size 1.56 1.56) (drill 1.04) (layers *.Cu *.Mask) (tstamp b6fc1512-fa11-45ca-ae4e-f25599ed1907))
  (pad "30" thru_hole circle (at -12.84 -3.74 180) (size 1.56 1.56) (drill 1.04) (layers *.Cu *.Mask) (tstamp a480447e-02e4-4893-98c9-2b3af65bca4e))
  (pad "31" thru_hole circle (at -12.84 -1.2 180) (size 1.56 1.56) (drill 1.04) (layers *.Cu *.Mask) (tstamp 8e4b9eac-8819-49e5-b28c-ecc2603187fe))
  (pad "32" thru_hole roundrect (at -12.84 1.34 180) (size 1.56 1.56) (drill 1.04) (layers *.Cu *.Mask) (roundrect_rratio 0.25) (tstamp d9d8308f-bb78-465c-95a4-fca7f535003e))
  (pad "33" thru_hole circle (at -12.84 3.88 180) (size 1.56 1.56) (drill 1.04) (layers *.Cu *.Mask) (tstamp 31a1b92b-1ff6-4aa0-a85e-4dd552c31f12))
  (pad "34" thru_hole circle (at -12.84 6.42 180) (size 1.56 1.56) (drill 1.04) (layers *.Cu *.Mask) (tstamp 12b29eae-4356-41a9-a276-85e353e30181))
  (pad "35" thru_hole circle (at -12.84 8.96 180) (size 1.56 1.56) (drill 1.04) (layers *.Cu *.Mask) (tstamp 4d501f42-201d-46c7-8ee4-4783d5e8c698))
  (pad "36" thru_hole circle (at -12.84 11.5 180) (size 1.56 1.56) (drill 1.04) (layers *.Cu *.Mask) (tstamp be686a44-ac76-4be1-b763-8195a5bc244a))
  (pad "37" thru_hole circle (at -12.84 14.04 180) (size 1.56 1.56) (drill 1.04) (layers *.Cu *.Mask) (tstamp 10bac6cb-dd19-47fb-8e6d-12a6c15ce77b))
  (pad "38" thru_hole roundrect (at -12.84 16.58 180) (size 1.56 1.56) (drill 1.04) (layers *.Cu *.Mask) (roundrect_rratio 0.25) (tstamp 41b3e204-19cc-421b-a90c-4c723fdb73c2))
  (model "${KIPRJMOD}/3dmodels/PCB_ESP32-38Pines.step"
    (offset (xyz 0 6 9))
    (scale (xyz 1 1 1))
    (rotate (xyz -90 0 -180))
  )
  (model "${KICAD6_3DMODEL_DIR}/Connector_PinSocket_2.54mm.3dshapes/PinSocket_1x19_P2.54mm_Vertical.wrl"
    (offset (xyz 12.5 29 0))
    (scale (xyz 1 1 1))
    (rotate (xyz 0 0 0))
  )
  (model "${KICAD6_3DMODEL_DIR}/Connector_PinSocket_2.54mm.3dshapes/PinSocket_1x19_P2.54mm_Vertical.wrl"
    (offset (xyz -13 29 0))
    (scale (xyz 1 1 1))
    (rotate (xyz 0 0 0))
  )
)
