(footprint "LegoHole_16x12u_4875" (version 20211014) (generator pcbnew)
  (layer "F.Cu")
  (tedit 61D86E9B)
  (descr "Mounting Hole 4.9mm, no annular")
  (tags "mounting hole 4.9mm, no annular")
  (property "Sheetfile" "m65.kicad_sch")
  (property "Sheetname" "")
  (attr exclude_from_pos_files exclude_from_bom)
  (fp_text reference "H?" (at 2.794 3.048) (layer "F.SilkS") hide
    (effects (font (size 1 1) (thickness 0.15)))
    (tstamp 48093584-e6d1-41cf-8ecd-fd4b2710fe7a)
  )
  (fp_text value "MountingHole" (at -5.08 2.54 90) (layer "F.Fab") hide
    (effects (font (size 1 1) (thickness 0.15)))
    (tstamp 7c65f2ea-b53e-42ce-89d6-b9f96fa43a98)
  )
  (fp_text user "${REFERENCE}" (at 120.3 24) (layer "F.Fab")
    (effects (font (size 1 1) (thickness 0.15)))
    (tstamp 00319152-b076-46a9-bbfc-641e66e483f0)
  )
  (fp_text user "${REFERENCE}" (at 16 -0.3 90) (layer "F.Fab")
    (effects (font (size 1 1) (thickness 0.15)))
    (tstamp 004fb985-7c81-4b88-adba-108a453c35f2)
  )
  (fp_text user "${REFERENCE}" (at -0.3 40 180) (layer "F.Fab")
    (effects (font (size 1 1) (thickness 0.15)))
    (tstamp 10395ad1-ffe3-4962-bb14-567919415ec4)
  )
  (fp_text user "${REFERENCE}" (at -0.3 16 180) (layer "F.Fab")
    (effects (font (size 1 1) (thickness 0.15)))
    (tstamp 12219673-827e-43ba-abb9-3589d5605764)
  )
  (fp_text user "${REFERENCE}" (at 120.3 8) (layer "F.Fab")
    (effects (font (size 1 1) (thickness 0.15)))
    (tstamp 1229be92-0685-482e-89fc-379f6ba6c875)
  )
  (fp_text user "${REFERENCE}" (at -0.3 48 180) (layer "F.Fab")
    (effects (font (size 1 1) (thickness 0.15)))
    (tstamp 15dd19a1-b7ba-47d7-b38a-5b04306885e9)
  )
  (fp_text user "${REFERENCE}" (at 104 -0.3 90) (layer "F.Fab")
    (effects (font (size 1 1) (thickness 0.15)))
    (tstamp 1870b4d0-a876-410f-98cf-78b6ba00d9d1)
  )
  (fp_text user "${REFERENCE}" (at 40 88.3 270) (layer "F.Fab")
    (effects (font (size 1 1) (thickness 0.15)))
    (tstamp 23018fd3-da65-44ed-bed4-a9be29903583)
  )
  (fp_text user "${REFERENCE}" (at 48 -0.3 90) (layer "F.Fab")
    (effects (font (size 1 1) (thickness 0.15)))
    (tstamp 2433c99d-b6df-4334-8580-786fdb5e8290)
  )
  (fp_text user "${REFERENCE}" (at 88 -0.3 90) (layer "F.Fab")
    (effects (font (size 1 1) (thickness 0.15)))
    (tstamp 3019a3b3-ff0f-4f9c-8a2e-be6c7c1ed3dc)
  )
  (fp_text user "${REFERENCE}" (at 16 88.3 270) (layer "F.Fab")
    (effects (font (size 1 1) (thickness 0.15)))
    (tstamp 324f9597-d2e8-4251-8439-fe7e60422aee)
  )
  (fp_text user "${REFERENCE}" (at 56 -0.3 90) (layer "F.Fab")
    (effects (font (size 1 1) (thickness 0.15)))
    (tstamp 3a7cf5a0-379e-45b3-9fe2-fb57aea0b4c9)
  )
  (fp_text user "${REFERENCE}" (at 8 88.3 270) (layer "F.Fab")
    (effects (font (size 1 1) (thickness 0.15)))
    (tstamp 3ebccdd1-7035-48e7-8b06-bb18fdbfe867)
  )
  (fp_text user "${REFERENCE}" (at 88 88.3 270) (layer "F.Fab")
    (effects (font (size 1 1) (thickness 0.15)))
    (tstamp 406dbca5-a2c9-4d96-b40b-90cef9502770)
  )
  (fp_text user "${REFERENCE}" (at 8 -0.3 90) (layer "F.Fab")
    (effects (font (size 1 1) (thickness 0.15)))
    (tstamp 423dca81-438a-4a92-a502-8495bed4f42e)
  )
  (fp_text user "${REFERENCE}" (at 72 -0.3 90) (layer "F.Fab")
    (effects (font (size 1 1) (thickness 0.15)))
    (tstamp 4657149b-faa9-40f7-8846-481089b84540)
  )
  (fp_text user "${REFERENCE}" (at 120.3 72) (layer "F.Fab")
    (effects (font (size 1 1) (thickness 0.15)))
    (tstamp 4754df38-a505-46b4-83ef-2554b0fad2de)
  )
  (fp_text user "${REFERENCE}" (at 120.3 48) (layer "F.Fab")
    (effects (font (size 1 1) (thickness 0.15)))
    (tstamp 4add8597-6d46-403b-846a-0d85e049f15a)
  )
  (fp_text user "${REFERENCE}" (at -0.3 64 180) (layer "F.Fab")
    (effects (font (size 1 1) (thickness 0.15)))
    (tstamp 4f0e249b-c5e6-444f-941f-d3db8effdea3)
  )
  (fp_text user "${REFERENCE}" (at 120.3 40) (layer "F.Fab")
    (effects (font (size 1 1) (thickness 0.15)))
    (tstamp 4f32c8ec-3fea-48c6-81ac-877ee485d535)
  )
  (fp_text user "${REFERENCE}" (at 24 -0.3 90) (layer "F.Fab")
    (effects (font (size 1 1) (thickness 0.15)))
    (tstamp 5553eac0-d63d-4af0-8579-44a819aa8bfe)
  )
  (fp_text user "${REFERENCE}" (at 0 -0.3 90) (layer "F.Fab")
    (effects (font (size 1 1) (thickness 0.15)))
    (tstamp 5f59f45b-10cd-42a1-a2ac-05037084b608)
  )
  (fp_text user "${REFERENCE}" (at 32 88.3 270) (layer "F.Fab")
    (effects (font (size 1 1) (thickness 0.15)))
    (tstamp 657f700e-e13e-42b1-b13a-14633d28a11b)
  )
  (fp_text user "${REFERENCE}" (at 120.3 0) (layer "F.Fab")
    (effects (font (size 1 1) (thickness 0.15)))
    (tstamp 69b1df61-1bfd-447f-a3ad-1345b7da851b)
  )
  (fp_text user "${REFERENCE}" (at 64 88.3 270) (layer "F.Fab")
    (effects (font (size 1 1) (thickness 0.15)))
    (tstamp 6a22fa90-9ee5-4892-8950-10bfd7719ca8)
  )
  (fp_text user "${REFERENCE}" (at -0.3 24 180) (layer "F.Fab")
    (effects (font (size 1 1) (thickness 0.15)))
    (tstamp 6dea24fb-4113-4991-97a0-ece92e2fe69b)
  )
  (fp_text user "${REFERENCE}" (at 120.3 64) (layer "F.Fab")
    (effects (font (size 1 1) (thickness 0.15)))
    (tstamp 7d62350c-05bd-4bd1-9899-251291a310d4)
  )
  (fp_text user "${REFERENCE}" (at 120.3 80) (layer "F.Fab")
    (effects (font (size 1 1) (thickness 0.15)))
    (tstamp 7e64e325-27df-4b14-ae17-25e7b3f74ea0)
  )
  (fp_text user "${REFERENCE}" (at 72 88.3 270) (layer "F.Fab")
    (effects (font (size 1 1) (thickness 0.15)))
    (tstamp 9095d5b1-71e2-40dc-8b69-a41a8c9e4a07)
  )
  (fp_text user "${REFERENCE}" (at 48 88.3 270) (layer "F.Fab")
    (effects (font (size 1 1) (thickness 0.15)))
    (tstamp 969d5ca5-90be-49a4-b15b-35a337dd4cf2)
  )
  (fp_text user "${REFERENCE}" (at 96 88.3 270) (layer "F.Fab")
    (effects (font (size 1 1) (thickness 0.15)))
    (tstamp 97b6af64-09d9-4619-94e7-6c7e99920883)
  )
  (fp_text user "${REFERENCE}" (at 24 88.3 270) (layer "F.Fab")
    (effects (font (size 1 1) (thickness 0.15)))
    (tstamp aba0a2e9-502d-4da8-9492-12c9d8afa361)
  )
  (fp_text user "${REFERENCE}" (at 112 88.3 270) (layer "F.Fab")
    (effects (font (size 1 1) (thickness 0.15)))
    (tstamp acfe9b83-9a9d-4b86-b82b-a124203d8189)
  )
  (fp_text user "${REFERENCE}" (at -0.3 32 180) (layer "F.Fab")
    (effects (font (size 1 1) (thickness 0.15)))
    (tstamp b5a24f62-d21a-4117-b696-70293bea7a12)
  )
  (fp_text user "${REFERENCE}" (at 56 88.3 270) (layer "F.Fab")
    (effects (font (size 1 1) (thickness 0.15)))
    (tstamp b86f2a1a-0b83-464e-94d6-cf6b43846ee1)
  )
  (fp_text user "${REFERENCE}" (at 40 -0.3 90) (layer "F.Fab")
    (effects (font (size 1 1) (thickness 0.15)))
    (tstamp b95336f5-cf25-4695-848c-63446dd3dca0)
  )
  (fp_text user "${REFERENCE}" (at 96 -0.3 90) (layer "F.Fab")
    (effects (font (size 1 1) (thickness 0.15)))
    (tstamp bdcc005f-adc8-4471-ab1d-d1e29c186407)
  )
  (fp_text user "${REFERENCE}" (at 120.3 32) (layer "F.Fab")
    (effects (font (size 1 1) (thickness 0.15)))
    (tstamp c0934c0f-ca83-4ab4-9ee3-e58725afcf1c)
  )
  (fp_text user "${REFERENCE}" (at -0.3 88 180) (layer "F.Fab")
    (effects (font (size 1 1) (thickness 0.15)))
    (tstamp c51d15fc-319b-4c3a-bb5b-6f831f49921e)
  )
  (fp_text user "${REFERENCE}" (at 64 -0.3 90) (layer "F.Fab")
    (effects (font (size 1 1) (thickness 0.15)))
    (tstamp c7958f39-b1f2-491d-8dcd-9f5eb2aab5b2)
  )
  (fp_text user "${REFERENCE}" (at 120 88.3 270) (layer "F.Fab")
    (effects (font (size 1 1) (thickness 0.15)))
    (tstamp c99fdaee-1667-4c93-848a-37a5632ff2cc)
  )
  (fp_text user "${REFERENCE}" (at -0.3 8 180) (layer "F.Fab")
    (effects (font (size 1 1) (thickness 0.15)))
    (tstamp d61f298f-7273-4ebb-87c4-657ba6a9b276)
  )
  (fp_text user "${REFERENCE}" (at 104 88.3 270) (layer "F.Fab")
    (effects (font (size 1 1) (thickness 0.15)))
    (tstamp d635b2b8-9a51-4eee-961c-44fdd27ac3d1)
  )
  (fp_text user "${REFERENCE}" (at 80 88.3 270) (layer "F.Fab")
    (effects (font (size 1 1) (thickness 0.15)))
    (tstamp d7752a1a-8ecf-463d-8470-73ec770ee42c)
  )
  (fp_text user "${REFERENCE}" (at -0.3 80 180) (layer "F.Fab")
    (effects (font (size 1 1) (thickness 0.15)))
    (tstamp d7d1060c-9bb9-413b-9dd6-24ee1e9b5aef)
  )
  (fp_text user "${REFERENCE}" (at -0.3 72 180) (layer "F.Fab")
    (effects (font (size 1 1) (thickness 0.15)))
    (tstamp dca09e29-64c3-4ed4-8e73-aac02cdcd9a0)
  )
  (fp_text user "${REFERENCE}" (at 112 -0.3 90) (layer "F.Fab")
    (effects (font (size 1 1) (thickness 0.15)))
    (tstamp dd6ae4e8-341c-4706-bccc-32a4bd950499)
  )
  (fp_text user "${REFERENCE}" (at 32 -0.3 90) (layer "F.Fab")
    (effects (font (size 1 1) (thickness 0.15)))
    (tstamp e1211b41-bc0c-431f-b7fc-adbf9cd5b34d)
  )
  (fp_text user "${REFERENCE}" (at 120.3 56) (layer "F.Fab")
    (effects (font (size 1 1) (thickness 0.15)))
    (tstamp e5a32719-d4fe-41da-a8c4-24ee5fff36e1)
  )
  (fp_text user "${REFERENCE}" (at 80 -0.3 90) (layer "F.Fab")
    (effects (font (size 1 1) (thickness 0.15)))
    (tstamp e8a02546-da9f-4af9-8327-47e1523a23b2)
  )
  (fp_text user "${REFERENCE}" (at 120.3 16) (layer "F.Fab")
    (effects (font (size 1 1) (thickness 0.15)))
    (tstamp f0f3a720-df2e-4d17-a3bc-9fc41cd85db1)
  )
  (fp_text user "${REFERENCE}" (at -0.3 56 180) (layer "F.Fab")
    (effects (font (size 1 1) (thickness 0.15)))
    (tstamp f60ba608-a50c-4641-8ae4-320b085f3f56)
  )
  (fp_line (start 116.05 -3.95) (end 116.05 3.95) (layer "F.SilkS") (width 0.1) (tstamp 0d421fc1-82d1-4930-8570-0974c6dbf1ff))
  (fp_line (start 123.95 0) (end 123.95 3.95) (layer "F.SilkS") (width 0.1) (tstamp 1bb028c9-563e-4448-b58a-735c45f42900))
  (fp_line (start 123.95 88) (end 123.95 84.05) (layer "F.SilkS") (width 0.1) (tstamp 1e7814d0-2802-4c1d-b653-8dce5fc1e29e))
  (fp_line (start 3.95 3.95) (end 3.95 -3.95) (layer "F.SilkS") (width 0.1) (tstamp 1fddcea8-86c6-4e04-a33f-85988e20cc59))
  (fp_line (start 123.95 84.05) (end 116.05 84.05) (layer "F.SilkS") (width 0.1) (tstamp 44430d5c-6c15-419c-9b0d-cfe412b6b96d))
  (fp_line (start 3.95 84.05) (end -3.95 84.05) (layer "F.SilkS") (width 0.1) (tstamp 4a39ebf4-5afb-4d60-a81a-9e7cb8f28d1e))
  (fp_line (start -3.95 0) (end -3.95 3.95) (layer "F.SilkS") (width 0.1) (tstamp 5dbcbe3c-4dd0-4822-b4db-2f9610f49598))
  (fp_line (start 0 -3.95) (end 3.95 -3.95) (layer "F.SilkS") (width 0.1) (tstamp 806bd032-2eb0-43f9-b051-28abdb2ce0c5))
  (fp_line (start 3.95 91.95) (end 3.95 84.05) (layer "F.SilkS") (width 0.1) (tstamp 960a646b-50e3-4193-8b7d-a6a933030c08))
  (fp_line (start 0 91.95) (end 3.95 91.95) (layer "F.SilkS") (width 0.1) (tstamp 9666da07-41a3-4098-934e-9ce865e58ea2))
  (fp_line (start 120 -3.95) (end 116.05 -3.95) (layer "F.SilkS") (width 0.1) (tstamp bffaaa1d-60b4-465b-bfb9-eb1494d3ff48))
  (fp_line (start 116.05 3.95) (end 123.95 3.95) (layer "F.SilkS") (width 0.1) (tstamp cf772f37-d09e-43f3-9dd9-482386420890))
  (fp_line (start 116.05 84.05) (end 116.05 91.95) (layer "F.SilkS") (width 0.1) (tstamp d8f90382-4f8e-4340-9772-49033c5ffe11))
  (fp_line (start -3.95 3.95) (end 3.95 3.95) (layer "F.SilkS") (width 0.1) (tstamp eb8196d0-98b5-4a7e-8bed-aa2b73bf8dc9))
  (fp_line (start -3.95 88) (end -3.95 84.05) (layer "F.SilkS") (width 0.1) (tstamp f51b3e06-3119-447f-b087-2b801891c549))
  (fp_line (start 120 91.95) (end 116.05 91.95) (layer "F.SilkS") (width 0.1) (tstamp f8059353-96e5-49b6-8be9-494409dca764))
  (fp_rect (start 3.95 43.95) (end -3.95 36.05) (layer "F.SilkS") (width 0.1) (fill none) (tstamp 03718172-e8ba-4c24-846e-493c0227d205))
  (fp_rect (start 3.95 27.95) (end -3.95 20.05) (layer "F.SilkS") (width 0.1) (fill none) (tstamp 090270a5-360a-41c0-9cb0-8194429a0862))
  (fp_rect (start 3.95 19.95) (end -3.95 12.05) (layer "F.SilkS") (width 0.1) (fill none) (tstamp 09dcf300-8f9c-42e2-949c-d0aa109a40e9))
  (fp_rect (start 11.95 84.05) (end 4.05 91.95) (layer "F.SilkS") (width 0.1) (fill none) (tstamp 0f966611-c9c5-44fd-a41d-c6667c1195cd))
  (fp_rect (start 100.05 3.95) (end 107.95 -3.95) (layer "F.SilkS") (width 0.1) (fill none) (tstamp 142e7025-6c69-4100-bd05-24f0dd512c4d))
  (fp_rect (start 52.05 3.95) (end 59.95 -3.95) (layer "F.SilkS") (width 0.1) (fill none) (tstamp 143e85bd-770a-46cb-8b61-0d4e786ab378))
  (fp_rect (start 76.05 3.95) (end 83.95 -3.95) (layer "F.SilkS") (width 0.1) (fill none) (tstamp 1a69516b-612f-4730-8a9e-aaaa4170e572))
  (fp_rect (start 75.95 84.05) (end 68.05 91.95) (layer "F.SilkS") (width 0.1) (fill none) (tstamp 1a6dc6c0-c855-4b2c-8610-9770643cf201))
  (fp_rect (start 36.05 3.95) (end 43.95 -3.95) (layer "F.SilkS") (width 0.1) (fill none) (tstamp 1d23ff33-f393-4aae-ac44-65f211f63c25))
  (fp_rect (start 3.95 51.95) (end -3.95 44.05) (layer "F.SilkS") (width 0.1) (fill none) (tstamp 250c629b-ee13-40da-a13f-f4d833af4590))
  (fp_rect (start 107.95 84.05) (end 100.05 91.95) (layer "F.SilkS") (width 0.1) (fill none) (tstamp 2b7f4ac5-1fd9-47c0-9e0e-338be62056a6))
  (fp_rect (start 116.05 20.05) (end 123.95 27.95) (layer "F.SilkS") (width 0.1) (fill none) (tstamp 2f181dd0-a150-49e6-b51b-351706a67422))
  (fp_rect (start 44.05 3.95) (end 51.95 -3.95) (layer "F.SilkS") (width 0.1) (fill none) (tstamp 3cbf0422-9221-464f-8c09-ef005b88ff34))
  (fp_rect (start 12.05 3.95) (end 19.95 -3.95) (layer "F.SilkS") (width 0.1) (fill none) (tstamp 3d919d57-760d-44ff-820b-0c13c7d5d88a))
  (fp_rect (start 116.05 4.05) (end 123.95 11.95) (layer "F.SilkS") (width 0.1) (fill none) (tstamp 3e41363e-b7f0-45a8-90c8-63f2713af838))
  (fp_rect (start 28.05 3.95) (end 35.95 -3.95) (layer "F.SilkS") (width 0.1) (fill none) (tstamp 40a65b78-71b6-4775-a5c2-96a92efb0eb6))
  (fp_rect (start 115.95 84.05) (end 108.05 91.95) (layer "F.SilkS") (width 0.1) (fill none) (tstamp 4259217a-9059-42cb-86ac-34a1516f46b9))
  (fp_rect (start 3.95 11.95) (end -3.95 4.05) (layer "F.SilkS") (width 0.1) (fill none) (tstamp 44abf48f-08af-498d-a5a5-f2c3d1d4c349))
  (fp_rect (start 108.05 3.95) (end 115.95 -3.95) (layer "F.SilkS") (width 0.1) (fill none) (tstamp 45d3f647-bee3-432a-8da6-c93bae3abf31))
  (fp_rect (start 60.05 3.95) (end 67.95 -3.95) (layer "F.SilkS") (width 0.1) (fill none) (tstamp 45f5d813-39db-44bc-9082-4d364c1a14b1))
  (fp_rect (start 116.05 76.05) (end 123.95 83.95) (layer "F.SilkS") (width 0.1) (fill none) (tstamp 4dfc1624-b5f7-4c4e-a0ea-607a6c47c675))
  (fp_rect (start 116.05 44.05) (end 123.95 51.95) (layer "F.SilkS") (width 0.1) (fill none) (tstamp 66193a2f-da4b-4565-89ef-e196f3658f44))
  (fp_rect (start 116.05 68.05) (end 123.95 75.95) (layer "F.SilkS") (width 0.1) (fill none) (tstamp 662cc7d3-cb87-41cc-aea2-920e05a7eae5))
  (fp_rect (start 116.05 28.05) (end 123.95 35.95) (layer "F.SilkS") (width 0.1) (fill none) (tstamp 6706221d-6349-4278-83ee-838d96170f8d))
  (fp_rect (start 51.95 84.05) (end 44.05 91.95) (layer "F.SilkS") (width 0.1) (fill none) (tstamp 6c82401f-bcec-4877-981e-d7db1148bf6a))
  (fp_rect (start 3.95 59.95) (end -3.95 52.05) (layer "F.SilkS") (width 0.1) (fill none) (tstamp 7642f271-3a7a-4dc5-b563-d935f523d0a0))
  (fp_rect (start 116.05 12.05) (end 123.95 19.95) (layer "F.SilkS") (width 0.1) (fill none) (tstamp 7786d8b2-02f8-4861-a196-045651402d7e))
  (fp_rect (start 27.95 84.05) (end 20.05 91.95) (layer "F.SilkS") (width 0.1) (fill none) (tstamp 8109f574-f2e7-439f-a3cb-61c1cadb6a7e))
  (fp_rect (start 19.95 84.05) (end 12.05 91.95) (layer "F.SilkS") (width 0.1) (fill none) (tstamp 89aa5be2-4833-4103-8a1f-cd5309c5a09c))
  (fp_rect (start 116.05 36.05) (end 123.95 43.95) (layer "F.SilkS") (width 0.1) (fill none) (tstamp 9a410f41-d519-4fbe-bb0d-26a52ebcd044))
  (fp_rect (start 99.95 84.05) (end 92.05 91.95) (layer "F.SilkS") (width 0.1) (fill none) (tstamp 9d1ad763-c3c5-4bfa-9bdb-9527c2822bab))
  (fp_rect (start 116.05 60.05) (end 123.95 67.95) (layer "F.SilkS") (width 0.1) (fill none) (tstamp a25a8b12-81e3-496d-8a77-7f31773fc5e9))
  (fp_rect (start 4.05 3.95) (end 11.95 -3.95) (layer "F.SilkS") (width 0.1) (fill none) (tstamp a3d29f22-0e01-4390-a292-bea1307b00b2))
  (fp_rect (start 3.95 75.95) (end -3.95 68.05) (layer "F.SilkS") (width 0.1) (fill none) (tstamp aacf578d-f7c1-49e6-827e-cd6dbe62e008))
  (fp_rect (start 35.95 84.05) (end 28.05 91.95) (layer "F.SilkS") (width 0.1) (fill none) (tstamp ac1ddff3-d29d-45d1-adb1-772a5e90d310))
  (fp_rect (start 3.95 83.95) (end -3.95 76.05) (layer "F.SilkS") (width 0.1) (fill none) (tstamp b3e13c5e-3a61-45ea-be6c-4523a4fd541c))
  (fp_rect (start 116.05 52.05) (end 123.95 59.95) (layer "F.SilkS") (width 0.1) (fill none) (tstamp b45a8acb-ee6d-4c49-8947-d825765e0809))
  (fp_rect (start 3.95 67.95) (end -3.95 60.05) (layer "F.SilkS") (width 0.1) (fill none) (tstamp bb1d5938-793d-439d-976e-af13c288c173))
  (fp_rect (start 91.95 84.05) (end 84.05 91.95) (layer "F.SilkS") (width 0.1) (fill none) (tstamp c0c02262-4f8a-4e4d-9480-adcf32ffb02f))
  (fp_rect (start 20.05 3.95) (end 27.95 -3.95) (layer "F.SilkS") (width 0.1) (fill none) (tstamp c33d7a33-1c61-40b2-ad15-ed51f1244423))
  (fp_rect (start 3.95 35.95) (end -3.95 28.05) (layer "F.SilkS") (width 0.1) (fill none) (tstamp cff18653-f723-472b-acaa-57785197af2a))
  (fp_rect (start 43.95 84.05) (end 36.05 91.95) (layer "F.SilkS") (width 0.1) (fill none) (tstamp d75867b6-244c-47aa-a988-d7d28affeadc))
  (fp_rect (start 83.95 84.05) (end 76.05 91.95) (layer "F.SilkS") (width 0.1) (fill none) (tstamp d8edce79-00b0-45e7-aff1-86839b4487cc))
  (fp_rect (start 67.95 84.05) (end 60.05 91.95) (layer "F.SilkS") (width 0.1) (fill none) (tstamp deb29833-a149-4724-83e6-e13c4bde1d24))
  (fp_rect (start 84.05 3.95) (end 91.95 -3.95) (layer "F.SilkS") (width 0.1) (fill none) (tstamp ed4e1d49-67d9-4868-8d02-680ec3b4a83a))
  (fp_rect (start 68.05 3.95) (end 75.95 -3.95) (layer "F.SilkS") (width 0.1) (fill none) (tstamp f5bcf5ac-5b98-46c4-9393-5731f2e3e05a))
  (fp_rect (start 59.95 84.05) (end 52.05 91.95) (layer "F.SilkS") (width 0.1) (fill none) (tstamp fc39a5c0-0120-4e4d-a9a4-f644a76e1022))
  (fp_rect (start 92.05 3.95) (end 99.95 -3.95) (layer "F.SilkS") (width 0.1) (fill none) (tstamp fe21f163-0910-4159-8d2a-74cf81cbf3a9))
  (fp_arc (start 123.95 88) (mid 122.793072 90.793072) (end 120 91.95) (layer "F.SilkS") (width 0.1) (tstamp 1f0cc214-dbf9-4bde-9ff1-03f95f13de2d))
  (fp_arc (start -3.95 0) (mid -2.793072 -2.793072) (end 0 -3.95) (layer "F.SilkS") (width 0.1) (tstamp 26013d8f-9a2c-4bf9-af1f-37cc51987213))
  (fp_arc (start 120 -3.95) (mid 122.793072 -2.793072) (end 123.95 0) (layer "F.SilkS") (width 0.1) (tstamp 4bd03f86-a4a0-459b-8c2e-e5213d081070))
  (fp_arc (start 0 91.95) (mid -2.793072 90.793072) (end -3.95 88) (layer "F.SilkS") (width 0.1) (tstamp b259844f-13c3-4f80-b136-c56290f68a65))
  (fp_line (start -3.9 0) (end -3.9 88) (layer "F.CrtYd") (width 0.12) (tstamp 20617826-52fc-47f5-983d-9082a4179188))
  (fp_line (start 123.9 88) (end 123.9 0) (layer "F.CrtYd") (width 0.12) (tstamp 23dfc820-f0b2-4438-a93e-460fcedb79d6))
  (fp_line (start 116.1 -3.9) (end 120 -3.9) (layer "F.CrtYd") (width 0.12) (tstamp 2aa4aa68-189a-48e9-ae82-997fecdd7511))
  (fp_line (start 116 3.9) (end 116 84) (layer "F.CrtYd") (width 0.12) (tstamp 7b8c2154-d372-48d0-b940-1b78937e7152))
  (fp_line (start 3.9 84) (end 3.9 3.9) (layer "F.CrtYd") (width 0.12) (tstamp 7faf1618-ea53-412f-8ec4-c2b86dfd76aa))
  (fp_line (start 116.1 -3.9) (end 0 -3.9) (layer "F.CrtYd") (width 0.12) (tstamp 8c31ddd8-03ae-4b6a-b020-f48f083cb39d))
  (fp_line (start 116 84) (end 3.9 84) (layer "F.CrtYd") (width 0.12) (tstamp d4006992-573d-48db-8554-1774a318222b))
  (fp_line (start 3.9 91.9) (end 120 91.9) (layer "F.CrtYd") (width 0.12) (tstamp e7888280-69a5-4bbe-9a7d-fb89fa53af51))
  (fp_line (start 3.9 91.9) (end 0 91.9) (layer "F.CrtYd") (width 0.12) (tstamp efd48573-e55a-46a0-a447-6dd77e22a3da))
  (fp_line (start 3.9 3.9) (end 116 3.9) (layer "F.CrtYd") (width 0.12) (tstamp f43aa4a8-d8a7-49b3-bb79-1475102a9c23))
  (fp_arc (start 0 91.9) (mid -2.757716 90.757716) (end -3.9 88) (layer "F.CrtYd") (width 0.12) (tstamp 10396f1b-af54-4263-9907-5ffbb5c6cd3c))
  (fp_arc (start 120 -3.9) (mid 122.757716 -2.757716) (end 123.9 0) (layer "F.CrtYd") (width 0.12) (tstamp 383a8dac-de74-4987-b3ff-840760fa5432))
  (fp_arc (start -3.9 0) (mid -2.757716 -2.757716) (end 0 -3.9) (layer "F.CrtYd") (width 0.12) (tstamp c74975a5-eb38-424f-910c-3df7d02ad100))
  (fp_arc (start 123.9 88) (mid 122.757716 90.757716) (end 120 91.9) (layer "F.CrtYd") (width 0.12) (tstamp e6b6274d-d200-438f-8fb3-474e5007ae8e))
  (pad "" np_thru_hole circle (at 16 0 90) (size 4.875 4.875) (drill 4.875) (layers F&B.Cu *.Mask) (tstamp 019a8c19-d740-4519-a77e-a8d4a5782e83))
  (pad "" np_thru_hole circle (at 0 24 180) (size 4.875 4.875) (drill 4.875) (layers F&B.Cu *.Mask) (tstamp 0573ef55-1cb6-4be0-91e7-96ee01530c88))
  (pad "" np_thru_hole circle (at 112 0 90) (size 4.875 4.875) (drill 4.875) (layers F&B.Cu *.Mask) (tstamp 064789b4-40d6-4fa4-b2e6-b9bc82759f6e))
  (pad "" np_thru_hole circle (at 120 16) (size 4.875 4.875) (drill 4.875) (layers F&B.Cu *.Mask) (tstamp 0edb9c33-0a0b-4686-a687-0e8ee5d2ee06))
  (pad "" np_thru_hole circle (at 0 0 90) (size 5.875 5.875) (drill 4.875) (layers F&B.Cu *.Mask) (tstamp 13e92e26-715c-464e-987e-32e6f43ee2cf))
  (pad "" np_thru_hole circle (at 8 88 270) (size 4.875 4.875) (drill 4.875) (layers F&B.Cu *.Mask) (tstamp 16e5f0d3-8435-40d5-92e3-a664b8f140e4))
  (pad "" np_thru_hole circle (at 40 88 270) (size 4.875 4.875) (drill 4.875) (layers F&B.Cu *.Mask) (tstamp 18c780c2-81af-4c9b-9914-376e3e03c9b7))
  (pad "" np_thru_hole circle (at 96 0 90) (size 4.875 4.875) (drill 4.875) (layers F&B.Cu *.Mask) (tstamp 1d0fa4f5-21ca-4cd1-b940-b048837d17b8))
  (pad "" np_thru_hole circle (at 88 0 90) (size 4.875 4.875) (drill 4.875) (layers F&B.Cu *.Mask) (tstamp 1d3faad3-0fbf-4368-8a04-c1d4dee33eba))
  (pad "" np_thru_hole circle (at 0 40 180) (size 4.875 4.875) (drill 4.875) (layers F&B.Cu *.Mask) (tstamp 212be8a5-8626-46bb-9826-30126bfab241))
  (pad "" np_thru_hole circle (at 0 64 180) (size 4.875 4.875) (drill 4.875) (layers F&B.Cu *.Mask) (tstamp 2199bb11-18ce-43fb-ba85-711f20c30be3))
  (pad "" np_thru_hole circle (at 0 56 180) (size 4.875 4.875) (drill 4.875) (layers F&B.Cu *.Mask) (tstamp 2d707498-4a2e-4c0d-9807-8599569abd6d))
  (pad "" np_thru_hole circle (at 32 0 90) (size 4.875 4.875) (drill 4.875) (layers F&B.Cu *.Mask) (tstamp 360eaeeb-ae26-4cf6-b8d7-a19e930026f4))
  (pad "" np_thru_hole circle (at 120 40) (size 4.875 4.875) (drill 4.875) (layers F&B.Cu *.Mask) (tstamp 3e833f38-ade1-460c-8a60-f2712ba0e51b))
  (pad "" np_thru_hole circle (at 0 48 180) (size 4.875 4.875) (drill 4.875) (layers F&B.Cu *.Mask) (tstamp 46dcf453-ce3e-4d9e-a6dc-cf5f5e016de7))
  (pad "" np_thru_hole circle (at 72 88 270) (size 4.875 4.875) (drill 4.875) (layers F&B.Cu *.Mask) (tstamp 4ba33fe2-b238-48b9-922d-ceeed0f29600))
  (pad "" np_thru_hole circle (at 48 88 270) (size 4.875 4.875) (drill 4.875) (layers F&B.Cu *.Mask) (tstamp 5eb96dcf-cef6-4375-82e7-ef63a92f289a))
  (pad "" np_thru_hole circle (at 64 88 270) (size 4.875 4.875) (drill 4.875) (layers F&B.Cu *.Mask) (tstamp 627512b9-500f-497b-abe4-597cafa0b7c6))
  (pad "" np_thru_hole circle (at 120 0) (size 4.875 4.875) (drill 4.875) (layers F&B.Cu *.Mask) (tstamp 669fff19-1dee-462f-8dad-7ea20c37dc04))
  (pad "" np_thru_hole circle (at 120 64) (size 4.875 4.875) (drill 4.875) (layers F&B.Cu *.Mask) (tstamp 73b4ed82-90f4-4c54-81fb-8b35a26c97ba))
  (pad "" np_thru_hole circle (at 8 0 90) (size 4.875 4.875) (drill 4.875) (layers F&B.Cu *.Mask) (tstamp 74e62f8f-ca0c-4f3c-9f65-19e16a1e775d))
  (pad "" np_thru_hole circle (at 0 80 180) (size 4.875 4.875) (drill 4.875) (layers F&B.Cu *.Mask) (tstamp 77ed2946-323b-4617-945c-05495b2060a3))
  (pad "" np_thru_hole circle (at 120 80) (size 4.875 4.875) (drill 4.875) (layers F&B.Cu *.Mask) (tstamp 780dd0d8-e856-447e-952e-08ace5a02a0a))
  (pad "" np_thru_hole circle (at 40 0 90) (size 4.875 4.875) (drill 4.875) (layers F&B.Cu *.Mask) (tstamp 7fab8ca2-220c-4cb3-a00f-f3d95faec0ea))
  (pad "" np_thru_hole circle (at 120 88 270) (size 4.875 4.875) (drill 4.875) (layers F&B.Cu *.Mask) (tstamp 818e7813-9abc-4d4e-8c85-5aa261512c6c))
  (pad "" np_thru_hole circle (at 120 48) (size 4.875 4.875) (drill 4.875) (layers F&B.Cu *.Mask) (tstamp 83202c0c-370e-48b5-b6cc-daa7550981cd))
  (pad "" np_thru_hole circle (at 32 88 270) (size 4.875 4.875) (drill 4.875) (layers F&B.Cu *.Mask) (tstamp 838e5851-0841-4b8e-b2cb-ad639d41bfce))
  (pad "" np_thru_hole circle (at 120 56) (size 4.875 4.875) (drill 4.875) (layers F&B.Cu *.Mask) (tstamp 8e0ebbf3-2057-45e7-872d-f360fd6a92ac))
  (pad "" np_thru_hole circle (at 0 8 180) (size 4.875 4.875) (drill 4.875) (layers F&B.Cu *.Mask) (tstamp 954d19c9-53e5-4559-a7b2-20034e0a8bd4))
  (pad "" np_thru_hole circle (at 112 88 270) (size 4.875 4.875) (drill 4.875) (layers F&B.Cu *.Mask) (tstamp 97cb7a19-0ad7-41a3-be24-a4d004e09f9d))
  (pad "" np_thru_hole circle (at 72 0 90) (size 4.875 4.875) (drill 4.875) (layers F&B.Cu *.Mask) (tstamp a1146acd-238f-4ac6-be18-87292cce5af4))
  (pad "" np_thru_hole circle (at 120 72) (size 4.875 4.875) (drill 4.875) (layers F&B.Cu *.Mask) (tstamp a21cbe5e-767d-4145-a7be-d9b55b429268))
  (pad "" np_thru_hole circle (at 56 0 90) (size 4.875 4.875) (drill 4.875) (layers F&B.Cu *.Mask) (tstamp a21e003a-9a16-4c42-b6f2-91bd5295b1b6))
  (pad "" np_thru_hole circle (at 0 32 180) (size 4.875 4.875) (drill 4.875) (layers F&B.Cu *.Mask) (tstamp a2626bd4-3e40-4413-8d7e-cf2a9f4bdf4e))
  (pad "" np_thru_hole circle (at 0 88 180) (size 4.875 4.875) (drill 4.875) (layers F&B.Cu *.Mask) (tstamp a7838a28-6265-4f2d-bdff-137c830dcf39))
  (pad "" np_thru_hole circle (at 120 24) (size 4.875 4.875) (drill 4.875) (layers F&B.Cu *.Mask) (tstamp b028330d-356b-4aab-8caa-bae1bb2c5d70))
  (pad "" np_thru_hole circle (at 64 0 90) (size 4.875 4.875) (drill 4.875) (layers F&B.Cu *.Mask) (tstamp b29c7f98-81ba-44fc-be5a-6135ff050dc7))
  (pad "" np_thru_hole circle (at 80 0 90) (size 4.875 4.875) (drill 4.875) (layers F&B.Cu *.Mask) (tstamp ba7371a1-70a3-43d6-874d-d977bc9aa578))
  (pad "" np_thru_hole circle (at 24 88 270) (size 4.875 4.875) (drill 4.875) (layers F&B.Cu *.Mask) (tstamp bf6eb7ab-ce51-47c7-98dd-c1b7b76c60a1))
  (pad "" np_thru_hole circle (at 48 0 90) (size 4.875 4.875) (drill 4.875) (layers F&B.Cu *.Mask) (tstamp c812bb1d-24e6-4eee-a43f-9d26d99c36c7))
  (pad "" np_thru_hole circle (at 120 32) (size 4.875 4.875) (drill 4.875) (layers F&B.Cu *.Mask) (tstamp ccd5834a-5237-4242-bf2e-df0c53567656))
  (pad "" np_thru_hole circle (at 104 88 270) (size 4.875 4.875) (drill 4.875) (layers F&B.Cu *.Mask) (tstamp d64b82cd-829e-493f-9e19-df91ca703484))
  (pad "" np_thru_hole circle (at 88 88 270) (size 4.875 4.875) (drill 4.875) (layers F&B.Cu *.Mask) (tstamp d8fb5612-b679-4722-9a28-a62fde7df17e))
  (pad "" np_thru_hole circle (at 0 16 180) (size 4.875 4.875) (drill 4.875) (layers F&B.Cu *.Mask) (tstamp de4d53a4-bec2-429c-8535-33728dbadde7))
  (pad "" np_thru_hole circle (at 16 88 270) (size 4.875 4.875) (drill 4.875) (layers F&B.Cu *.Mask) (tstamp e0071ffa-30d4-4631-94a9-ac74fd795ce3))
  (pad "" np_thru_hole circle (at 104 0 90) (size 4.875 4.875) (drill 4.875) (layers F&B.Cu *.Mask) (tstamp e0eb63d1-b574-4df7-b273-da8dbffc84ab))
  (pad "" np_thru_hole circle (at 0 72 180) (size 4.875 4.875) (drill 4.875) (layers F&B.Cu *.Mask) (tstamp e2aec21a-347c-4441-8297-229a474d63e2))
  (pad "" np_thru_hole circle (at 24 0 90) (size 4.875 4.875) (drill 4.875) (layers F&B.Cu *.Mask) (tstamp e73056ad-b070-421d-9a17-0de5bf6fb160))
  (pad "" np_thru_hole circle (at 56 88 270) (size 4.875 4.875) (drill 4.875) (layers F&B.Cu *.Mask) (tstamp e9b8a2f5-b535-496d-a373-e01e815bbaac))
  (pad "" np_thru_hole circle (at 120 8) (size 4.875 4.875) (drill 4.875) (layers F&B.Cu *.Mask) (tstamp ebe3433e-cafa-4e41-979c-4db49525bcff))
  (pad "" np_thru_hole circle (at 80 88 270) (size 4.875 4.875) (drill 4.875) (layers F&B.Cu *.Mask) (tstamp efa6ed30-d028-461a-be71-d44ad8881151))
  (pad "" np_thru_hole circle (at 96 88 270) (size 4.875 4.875) (drill 4.875) (layers F&B.Cu *.Mask) (tstamp f9f5d980-73f5-4864-9901-ce013fc407df))
)
