(footprint "mpu-6050_i2c" (version 20211014) (generator pcbnew)
  (layer "F.Cu")
  (tedit 59FED5CC)
  (descr "Through hole straight pin header, 1x08, 2.54mm pitch, single row")
  (tags "Through hole pin header THT 1x08 2.54mm single row")
  (attr through_hole)
  (fp_text reference "REF**" (at 2.76 -0.72 90) (layer "F.SilkS")
    (effects (font (size 1 1) (thickness 0.15)))
    (tstamp 36f5edb3-9b59-4722-8398-bebae7dcb35c)
  )
  (fp_text value "mpu-6050_i2c" (at -6.34 10.35 90) (layer "F.Fab")
    (effects (font (size 1 1) (thickness 0.15)))
    (tstamp d4a9ac10-b1de-47d7-870b-64a03843df14)
  )
  (fp_text user "gnd" (at 3.13 15.16 unlocked) (layer "B.SilkS")
    (effects (font (size 1 1) (thickness 0.15)) (justify mirror))
    (tstamp 28afc34d-28f6-4628-a759-94d069b12c12)
  )
  (fp_text user "int" (at 2.83 0.22 unlocked) (layer "B.SilkS")
    (effects (font (size 1 1) (thickness 0.15)) (justify mirror))
    (tstamp 2b0e1b3a-41b2-46f4-8bbc-b13fcc2ce0f1)
  )
  (fp_text user "${VALUE}" (at -14.66 9.95 -90) (layer "B.SilkS")
    (effects (font (size 1 1) (thickness 0.15)) (justify mirror))
    (tstamp 3823f1fc-6a46-4e0b-a99a-0a0a9a808043)
  )
  (fp_text user "ado" (at 3.22 2.7 unlocked) (layer "B.SilkS")
    (effects (font (size 1 1) (thickness 0.15)) (justify mirror))
    (tstamp 396c7d1f-14aa-479a-bed2-250058ff2beb)
  )
  (fp_text user "xda" (at 3.05 7.69 unlocked) (layer "B.SilkS")
    (effects (font (size 1 1) (thickness 0.15)) (justify mirror))
    (tstamp 48d77148-1454-4c3d-bc70-0b98bc743a25)
  )
  (fp_text user "xcl" (at 2.9 5.15 unlocked) (layer "B.SilkS")
    (effects (font (size 1 1) (thickness 0.15)) (justify mirror))
    (tstamp b05a6835-d2d6-4a75-be0f-a0dabf212494)
  )
  (fp_text user "scl" (at 2.94 12.64 unlocked) (layer "B.SilkS")
    (effects (font (size 1 1) (thickness 0.15)) (justify mirror))
    (tstamp b1db1843-529c-469a-a490-61b27e4da4b4)
  )
  (fp_text user "vin" (at 2.85 17.94 unlocked) (layer "B.SilkS")
    (effects (font (size 1 1) (thickness 0.15)) (justify mirror))
    (tstamp ea64329d-b7c7-45cf-8563-29dddb8a6707)
  )
  (fp_text user "sda" (at 3.07 10.27 unlocked) (layer "B.SilkS")
    (effects (font (size 1 1) (thickness 0.15)) (justify mirror))
    (tstamp efccaf3c-7761-4a65-a19b-bd4c60142278)
  )
  (fp_text user "sda" (at -2.57 10.31 unlocked) (layer "F.SilkS")
    (effects (font (size 1 1) (thickness 0.15)))
    (tstamp 11e86db8-4b90-4eb6-b99b-bb2476f9ba31)
  )
  (fp_text user "scl" (at -2.65 12.67 unlocked) (layer "F.SilkS")
    (effects (font (size 1 1) (thickness 0.15)))
    (tstamp 6abb2618-6622-438d-a1a0-b06085dcc7c7)
  )
  (fp_text user "${VALUE}" (at 2.76 9.76 270) (layer "F.SilkS")
    (effects (font (size 1 1) (thickness 0.15)))
    (tstamp 6e9099b6-5c50-40c9-92ca-cf9eae2b8be3)
  )
  (fp_text user "xda" (at -2.84 7.71 unlocked) (layer "F.SilkS")
    (effects (font (size 1 1) (thickness 0.15)))
    (tstamp 812df0da-c724-48ca-bca7-4f1feea68c06)
  )
  (fp_text user "xcl" (at -2.42 5.19 unlocked) (layer "F.SilkS")
    (effects (font (size 1 1) (thickness 0.15)))
    (tstamp b94ae1b0-76bc-425b-b572-88f6081ba2bd)
  )
  (fp_text user "ado" (at -2.72 2.71 unlocked) (layer "F.SilkS")
    (effects (font (size 1 1) (thickness 0.15)))
    (tstamp bd8d7819-6a09-4f1f-b29e-3ed876490195)
  )
  (fp_text user "vin" (at -2.53 17.94 unlocked) (layer "F.SilkS")
    (effects (font (size 1 1) (thickness 0.15)))
    (tstamp d5d301da-7398-480d-9874-f56794e66f37)
  )
  (fp_text user "int" (at -2.42 0.27 unlocked) (layer "F.SilkS")
    (effects (font (size 1 1) (thickness 0.15)))
    (tstamp eab6e3e5-ccc2-491c-ad24-7728d9f03da4)
  )
  (fp_text user "gnd" (at -2.69 15.19 unlocked) (layer "F.SilkS")
    (effects (font (size 1 1) (thickness 0.15)))
    (tstamp f7326ae3-e273-48e0-b61c-3a2b28d42316)
  )
  (fp_rect (start -13.62 -1.69) (end 1.72 19.45) (layer "B.SilkS") (width 0.12) (fill none) (tstamp 54217719-5322-43cb-b26a-965b403c0a66))
  (fp_poly (pts
      (xy -10.769609 12.086938)
      (xy -11.297929 12.615257)
      (xy -10.896609 12.615257)
      (xy -10.495289 12.615258)
      (xy -10.495333 14.604924)
      (xy -11.285425 15.049424)
      (xy -11.613396 15.231246)
      (xy -11.885625 15.377116)
      (xy -12.069272 15.469748)
      (xy -12.129895 15.493924)
      (xy -12.20143 15.426679)
      (xy -12.303724 15.262516)
      (xy -12.315622 15.239924)
      (xy -12.42145 15.068002)
      (xy -12.504702 14.986874)
      (xy -12.51071 14.985924)
      (xy -12.55673 15.060357)
      (xy -12.626664 15.251297)
      (xy -12.706553 15.510209)
      (xy -12.782437 15.788557)
      (xy -12.840359 16.037804)
      (xy -12.86636 16.209416)
      (xy -12.866666 16.223601)
      (xy -12.791073 16.29256)
      (xy -12.594202 16.380159)
      (xy -12.336789 16.462147)
      (xy -12.033795 16.544932)
      (xy -11.778384 16.615431)
      (xy -11.645023 16.652923)
      (xy -11.550277 16.671387)
      (xy -11.537461 16.626755)
      (xy -11.609354 16.485645)
      (xy -11.66717 16.38671)
      (xy -11.771904 16.180418)
      (xy -11.815263 16.034648)
      (xy -11.810944 16.0073)
      (xy -11.724519 15.939715)
      (xy -11.523524 15.809599)
      (xy -11.240845 15.637673)
      (xy -11.005631 15.499881)
      (xy -10.241289 15.058752)
      (xy -9.476946 15.499881)
      (xy -9.155869 15.689058)
      (xy -8.892841 15.851318)
      (xy -8.720748 15.96594)
      (xy -8.671633 16.0073)
      (xy -8.685242 16.114879)
      (xy -8.768792 16.303949)
      (xy -8.809339 16.376424)
      (xy -8.900133 16.534304)
      (xy -8.929207 16.625022)
      (xy -8.873498 16.653665)
      (xy -8.709941 16.625323)
      (xy -8.415472 16.545084)
      (xy -8.253767 16.499)
      (xy -7.960238 16.411934)
      (xy -7.737156 16.339307)
      (xy -7.628674 16.295579)
      (xy -7.625774 16.293298)
      (xy -7.623327 16.196205)
      (xy -7.659625 15.989175)
      (xy -7.721973 15.720425)
      (xy -7.79767 15.438172)
      (xy -7.874021 15.190633)
      (xy -7.938326 15.026023)
      (xy -7.970069 14.985924)
      (xy -8.049334 15.053403)
      (xy -8.155404 15.218056)
      (xy -8.166955 15.239924)
      (xy -8.270146 15.411634)
      (xy -8.347326 15.492921)
      (xy -8.352682 15.493924)
      (xy -8.444461 15.454804)
      (xy -8.65043 15.348967)
      (xy -8.93775 15.193698)
      (xy -9.197152 15.049424)
      (xy -9.987244 14.604924)
      (xy -9.987266 13.610091)
      (xy -9.987289 12.615258)
      (xy -9.585968 12.615257)
      (xy -9.184648 12.615257)
      (xy -9.712968 12.086938)
      (xy -10.241289 11.558618)
    ) (layer "B.SilkS") (width 0) (fill solid) (tstamp 7efa5626-238b-47fc-8563-de51b43a381d))
  (fp_poly (pts
      (xy -12.951281 2.508279)
      (xy -12.743368 2.791212)
      (xy -12.386312 3.054919)
      (xy -11.883609 3.289519)
      (xy -11.502027 3.41553)
      (xy -11.379759 3.516636)
      (xy -11.363192 3.554365)
      (xy -11.156243 4.134555)
      (xy -10.913214 4.58)
      (xy -10.642472 4.883725)
      (xy -10.352384 5.038754)
      (xy -10.051318 5.038114)
      (xy -9.763694 4.887701)
      (xy -9.637056 4.745368)
      (xy -9.478971 4.512087)
      (xy -9.319597 4.240423)
      (xy -9.189092 3.982936)
      (xy -9.117612 3.792192)
      (xy -9.112114 3.752028)
      (xy -9.185829 3.718634)
      (xy -9.36346 3.704456)
      (xy -9.366799 3.704452)
      (xy -9.539929 3.728147)
      (xy -9.654054 3.828599)
      (xy -9.757981 4.045589)
      (xy -9.93288 4.356639)
      (xy -10.13157 4.503378)
      (xy -10.337037 4.485836)
      (xy -10.532272 4.304046)
      (xy -10.668266 4.043875)
      (xy -10.752842 3.814739)
      (xy -10.801119 3.649534)
      (xy -10.805447 3.618072)
      (xy -10.727486 3.576917)
      (xy -10.520226 3.547006)
      (xy -10.223605 3.533831)
      (xy -10.191614 3.533648)
      (xy -9.524623 3.495198)
      (xy -8.915944 3.389093)
      (xy -8.385055 3.224242)
      (xy -7.951436 3.009559)
      (xy -7.634565 2.753955)
      (xy -7.453921 2.46634)
      (xy -7.41878 2.265119)
      (xy -7.468233 2.025479)
      (xy -7.549684 1.861906)
      (xy -7.720032 1.693618)
      (xy -7.987732 1.503789)
      (xy -8.2918 1.330901)
      (xy -8.571251 1.213439)
      (xy -8.582947 1.209871)
      (xy -8.715741 1.190954)
      (xy -8.766594 1.271924)
      (xy -8.773447 1.413432)
      (xy -8.750816 1.589407)
      (xy -8.653425 1.703914)
      (xy -8.437032 1.808427)
      (xy -8.43231 1.810319)
      (xy -8.121729 1.985209)
      (xy -7.974873 2.184218)
      (xy -7.991836 2.389889)
      (xy -8.172711 2.584767)
      (xy -8.427444 2.717971)
      (xy -8.775578 2.827376)
      (xy -9.20331 2.917863)
      (xy -9.664536 2.984508)
      (xy -10.113154 3.022389)
      (xy -10.503059 3.02658)
      (xy -10.788149 2.992158)
      (xy -10.840856 2.975727)
      (xy -10.916575 2.905509)
      (xy -10.958525 2.744917)
      (xy -10.974124 2.459589)
      (xy -10.97478 2.35539)
      (xy -10.974781 1.786446)
      (xy -11.228781 1.823725)
      (xy -11.370487 1.852903)
      (xy -11.446341 1.916079)
      (xy -11.476911 2.05663)
      (xy -11.482763 2.317933)
      (xy -11.482781 2.359395)
      (xy -11.495568 2.624429)
      (xy -11.528753 2.805187)
      (xy -11.565734 2.857785)
      (xy -11.756203 2.816474)
      (xy -12.001588 2.714591)
      (xy -12.236066 2.585211)
      (xy -12.393815 2.461408)
      (xy -12.41628 2.430404)
      (xy -12.462146 2.212418)
      (xy -12.350197 2.019542)
      (xy -12.077439 1.849565)
      (xy -11.640879 1.700274)
      (xy -11.327313 1.625639)
      (xy -10.942997 1.54719)
      (xy -10.694425 1.512088)
      (xy -10.552048 1.526919)
      (xy -10.486315 1.59827)
      (xy -10.467677 1.732727)
      (xy -10.46678 1.817436)
      (xy -10.466781 2.131753)
      (xy -9.619839 1.297547)
      (xy -10.424447 0.478467)
      (xy -10.449602 0.71834)
      (xy -10.471789 0.840316)
      (xy -10.531072 0.919998)
      (xy -10.663472 0.975657)
      (xy -10.905012 1.025563)
      (xy -11.126935 1.061877)
      (xy -11.51891 1.144459)
      (xy -11.914462 1.260436)
      (xy -12.221587 1.381898)
      (xy -12.645205 1.64293)
      (xy -12.905696 1.924258)
      (xy -13.006556 2.216001)
    ) (layer "B.SilkS") (width 0) (fill solid) (tstamp 9f8a1442-fd11-4e1f-bd64-921cf67e154c))
  (fp_poly (pts
      (xy -11.205975 0.818932)
      (xy -11.064467 0.825785)
      (xy -10.888492 0.803154)
      (xy -10.773985 0.705763)
      (xy -10.669472 0.48937)
      (xy -10.66758 0.484648)
      (xy -10.497906 0.16666)
      (xy -10.315537 0.011518)
      (xy -10.128949 0.014065)
      (xy -9.946617 0.169142)
      (xy -9.777016 0.471592)
      (xy -9.628624 0.916256)
      (xy -9.573301 1.150586)
      (xy -9.494834 1.534905)
      (xy -9.459734 1.783472)
      (xy -9.474662 1.925842)
      (xy -9.54628 1.991572)
      (xy -9.681252 2.010215)
      (xy -9.767273 2.011119)
      (xy -10.083765 2.011119)
      (xy -9.640273 2.454611)
      (xy -9.19678 2.898103)
      (xy -8.309796 2.011119)
      (xy -8.904606 2.011119)
      (xy -9.008904 1.354952)
      (xy -9.142886 0.75616)
      (xy -9.332435 0.256905)
      (xy -9.566263 -0.130501)
      (xy -9.833082 -0.393749)
      (xy -10.121607 -0.520526)
      (xy -10.42055 -0.498521)
      (xy -10.615993 -0.397978)
      (xy -10.784281 -0.22763)
      (xy -10.97411 0.04007)
      (xy -11.146998 0.344138)
      (xy -11.26446 0.623589)
      (xy -11.268028 0.635285)
      (xy -11.286945 0.768079)
    ) (layer "B.SilkS") (width 0) (fill solid) (tstamp b3e3e21a-b6a1-4f37-9bfe-37ae73e15b0f))
  (fp_line (start -1.33 19.11) (end 1.33 19.11) (layer "F.SilkS") (width 0.12) (tstamp 8753beda-ae62-463c-b0b1-170295c8a6aa))
  (fp_line (start -1.33 0) (end -1.33 19.11) (layer "F.SilkS") (width 0.12) (tstamp a158832c-5ac0-48a1-9de3-660d6a4b2059))
  (fp_line (start -1.33 0) (end -1.33 -1.33) (layer "F.SilkS") (width 0.12) (tstamp b6b1c983-db3a-4dde-8b2c-e1cae6aee4cc))
  (fp_line (start 1.33 -1.33) (end 1.33 19.11) (layer "F.SilkS") (width 0.12) (tstamp ccc4d12f-4e4b-477d-90e2-3bdd9b39ed6e))
  (fp_line (start -1.33 -1.33) (end 1.33 -1.33) (layer "F.SilkS") (width 0.12) (tstamp eaed2793-c75a-4291-986d-83255a76cb62))
  (fp_rect (start -13.63 -1.72) (end 1.73 19.47) (layer "F.SilkS") (width 0.12) (fill none) (tstamp 5405cf6a-5992-40c3-94c3-768d69c31ed2))
  (fp_poly (pts
      (xy -9.678717 12.120915)
      (xy -9.150397 12.649234)
      (xy -9.551717 12.649234)
      (xy -9.953037 12.649235)
      (xy -9.952993 14.638901)
      (xy -9.162901 15.083401)
      (xy -8.83493 15.265223)
      (xy -8.562701 15.411093)
      (xy -8.379054 15.503725)
      (xy -8.318431 15.527901)
      (xy -8.246896 15.460656)
      (xy -8.144602 15.296493)
      (xy -8.132704 15.273901)
      (xy -8.026876 15.101979)
      (xy -7.943624 15.020851)
      (xy -7.937616 15.019901)
      (xy -7.891596 15.094334)
      (xy -7.821662 15.285274)
      (xy -7.741773 15.544186)
      (xy -7.665889 15.822534)
      (xy -7.607967 16.071781)
      (xy -7.581966 16.243393)
      (xy -7.58166 16.257578)
      (xy -7.657253 16.326537)
      (xy -7.854124 16.414136)
      (xy -8.111537 16.496124)
      (xy -8.414531 16.578909)
      (xy -8.669942 16.649408)
      (xy -8.803303 16.6869)
      (xy -8.898049 16.705364)
      (xy -8.910865 16.660732)
      (xy -8.838972 16.519622)
      (xy -8.781156 16.420687)
      (xy -8.676422 16.214395)
      (xy -8.633063 16.068625)
      (xy -8.637382 16.041277)
      (xy -8.723807 15.973692)
      (xy -8.924802 15.843576)
      (xy -9.207481 15.67165)
      (xy -9.442695 15.533858)
      (xy -10.207037 15.092729)
      (xy -10.97138 15.533858)
      (xy -11.292457 15.723035)
      (xy -11.555485 15.885295)
      (xy -11.727578 15.999917)
      (xy -11.776693 16.041277)
      (xy -11.763084 16.148856)
      (xy -11.679534 16.337926)
      (xy -11.638987 16.410401)
      (xy -11.548193 16.568281)
      (xy -11.519119 16.658999)
      (xy -11.574828 16.687642)
      (xy -11.738385 16.6593)
      (xy -12.032854 16.579061)
      (xy -12.194559 16.532977)
      (xy -12.488088 16.445911)
      (xy -12.71117 16.373284)
      (xy -12.819652 16.329556)
      (xy -12.822552 16.327275)
      (xy -12.824999 16.230182)
      (xy -12.788701 16.023152)
      (xy -12.726353 15.754402)
      (xy -12.650656 15.472149)
      (xy -12.574305 15.22461)
      (xy -12.51 15.06)
      (xy -12.478257 15.019901)
      (xy -12.398992 15.08738)
      (xy -12.292922 15.252033)
      (xy -12.281371 15.273901)
      (xy -12.17818 15.445611)
      (xy -12.101 15.526898)
      (xy -12.095644 15.527901)
      (xy -12.003865 15.488781)
      (xy -11.797896 15.382944)
      (xy -11.510576 15.227675)
      (xy -11.251174 15.083401)
      (xy -10.461082 14.638901)
      (xy -10.46106 13.644068)
      (xy -10.461037 12.649235)
      (xy -10.862358 12.649234)
      (xy -11.263678 12.649234)
      (xy -10.735358 12.120915)
      (xy -10.207037 11.592595)
    ) (layer "F.SilkS") (width 0) (fill solid) (tstamp 607f7391-768c-4a62-ac39-fd4265551933))
  (fp_poly (pts
      (xy -7.401933 2.468279)
      (xy -7.609846 2.751212)
      (xy -7.966902 3.014919)
      (xy -8.469605 3.249519)
      (xy -8.851187 3.37553)
      (xy -8.973455 3.476636)
      (xy -8.990022 3.514365)
      (xy -9.196971 4.094555)
      (xy -9.44 4.54)
      (xy -9.710742 4.843725)
      (xy -10.00083 4.998754)
      (xy -10.301896 4.998114)
      (xy -10.58952 4.847701)
      (xy -10.716158 4.705368)
      (xy -10.874243 4.472087)
      (xy -11.033617 4.200423)
      (xy -11.164122 3.942936)
      (xy -11.235602 3.752192)
      (xy -11.2411 3.712028)
      (xy -11.167385 3.678634)
      (xy -10.989754 3.664456)
      (xy -10.986415 3.664452)
      (xy -10.813285 3.688147)
      (xy -10.69916 3.788599)
      (xy -10.595233 4.005589)
      (xy -10.420334 4.316639)
      (xy -10.221644 4.463378)
      (xy -10.016177 4.445836)
      (xy -9.820942 4.264046)
      (xy -9.684948 4.003875)
      (xy -9.600372 3.774739)
      (xy -9.552095 3.609534)
      (xy -9.547767 3.578072)
      (xy -9.625728 3.536917)
      (xy -9.832988 3.507006)
      (xy -10.129609 3.493831)
      (xy -10.1616 3.493648)
      (xy -10.828591 3.455198)
      (xy -11.43727 3.349093)
      (xy -11.968159 3.184242)
      (xy -12.401778 2.969559)
      (xy -12.718649 2.713955)
      (xy -12.899293 2.42634)
      (xy -12.934434 2.225119)
      (xy -12.884981 1.985479)
      (xy -12.80353 1.821906)
      (xy -12.633182 1.653618)
      (xy -12.365482 1.463789)
      (xy -12.061414 1.290901)
      (xy -11.781963 1.173439)
      (xy -11.770267 1.169871)
      (xy -11.637473 1.150954)
      (xy -11.58662 1.231924)
      (xy -11.579767 1.373432)
      (xy -11.602398 1.549407)
      (xy -11.699789 1.663914)
      (xy -11.916182 1.768427)
      (xy -11.920904 1.770319)
      (xy -12.231485 1.945209)
      (xy -12.378341 2.144218)
      (xy -12.361378 2.349889)
      (xy -12.180503 2.544767)
      (xy -11.92577 2.677971)
      (xy -11.577636 2.787376)
      (xy -11.149904 2.877863)
      (xy -10.688678 2.944508)
      (xy -10.24006 2.982389)
      (xy -9.850155 2.98658)
      (xy -9.565065 2.952158)
      (xy -9.512358 2.935727)
      (xy -9.436639 2.865509)
      (xy -9.394689 2.704917)
      (xy -9.37909 2.419589)
      (xy -9.378434 2.31539)
      (xy -9.378433 1.746446)
      (xy -9.124433 1.783725)
      (xy -8.982727 1.812903)
      (xy -8.906873 1.876079)
      (xy -8.876303 2.01663)
      (xy -8.870451 2.277933)
      (xy -8.870433 2.319395)
      (xy -8.857646 2.584429)
      (xy -8.824461 2.765187)
      (xy -8.78748 2.817785)
      (xy -8.597011 2.776474)
      (xy -8.351626 2.674591)
      (xy -8.117148 2.545211)
      (xy -7.959399 2.421408)
      (xy -7.936934 2.390404)
      (xy -7.891068 2.172418)
      (xy -8.003017 1.979542)
      (xy -8.275775 1.809565)
      (xy -8.712335 1.660274)
      (xy -9.025901 1.585639)
      (xy -9.410217 1.50719)
      (xy -9.658789 1.472088)
      (xy -9.801166 1.486919)
      (xy -9.866899 1.55827)
      (xy -9.885537 1.692727)
      (xy -9.886434 1.777436)
      (xy -9.886433 2.091753)
      (xy -10.733375 1.257547)
      (xy -9.928767 0.438467)
      (xy -9.903612 0.67834)
      (xy -9.881425 0.800316)
      (xy -9.822142 0.879998)
      (xy -9.689742 0.935657)
      (xy -9.448202 0.985563)
      (xy -9.226279 1.021877)
      (xy -8.834304 1.104459)
      (xy -8.438752 1.220436)
      (xy -8.131627 1.341898)
      (xy -7.708009 1.60293)
      (xy -7.447518 1.884258)
      (xy -7.346658 2.176001)
    ) (layer "F.SilkS") (width 0) (fill solid) (tstamp 861fbdfd-06cb-4dfc-af01-1766c9536eb4))
  (fp_poly (pts
      (xy -9.147239 0.778932)
      (xy -9.288747 0.785785)
      (xy -9.464722 0.763154)
      (xy -9.579229 0.665763)
      (xy -9.683742 0.44937)
      (xy -9.685634 0.444648)
      (xy -9.855308 0.12666)
      (xy -10.037677 -0.028482)
      (xy -10.224265 -0.025935)
      (xy -10.406597 0.129142)
      (xy -10.576198 0.431592)
      (xy -10.72459 0.876256)
      (xy -10.779913 1.110586)
      (xy -10.85838 1.494905)
      (xy -10.89348 1.743472)
      (xy -10.878552 1.885842)
      (xy -10.806934 1.951572)
      (xy -10.671962 1.970215)
      (xy -10.585941 1.971119)
      (xy -10.269449 1.971119)
      (xy -10.712941 2.414611)
      (xy -11.156434 2.858103)
      (xy -12.043418 1.971119)
      (xy -11.448608 1.971119)
      (xy -11.34431 1.314952)
      (xy -11.210328 0.71616)
      (xy -11.020779 0.216905)
      (xy -10.786951 -0.170501)
      (xy -10.520132 -0.433749)
      (xy -10.231607 -0.560526)
      (xy -9.932664 -0.538521)
      (xy -9.737221 -0.437978)
      (xy -9.568933 -0.26763)
      (xy -9.379104 0.00007)
      (xy -9.206216 0.304138)
      (xy -9.088754 0.583589)
      (xy -9.085186 0.595285)
      (xy -9.066269 0.728079)
    ) (layer "F.SilkS") (width 0) (fill solid) (tstamp 9b87b5cf-0863-4ca9-8db9-14f17b1a7faa))
  (fp_line (start -13.7 19.55) (end 1.8 19.55) (layer "F.CrtYd") (width 0.05) (tstamp 3a163553-8327-4b60-8f9d-96fcefcf82d2))
  (fp_line (start 1.8 -1.8) (end -13.7 -1.8) (layer "F.CrtYd") (width 0.05) (tstamp 4c0a7fdc-f5af-4a72-9d80-74ac007ad0f6))
  (fp_line (start -13.7 -1.8) (end -13.7 19.55) (layer "F.CrtYd") (width 0.05) (tstamp 4c207e22-d992-4501-8a3d-1988f0353bde))
  (fp_line (start 1.8 19.55) (end 1.8 -1.8) (layer "F.CrtYd") (width 0.05) (tstamp ab440767-6178-4518-9822-6405683a34de))
  (fp_line (start 1.27 19.05) (end -1.27 19.05) (layer "F.Fab") (width 0.1) (tstamp 20a85b68-5a84-4f8b-a689-6efb0fedaac4))
  (fp_line (start -1.27 19.05) (end -1.27 -0.635) (layer "F.Fab") (width 0.1) (tstamp 481547b8-4c57-416b-8cb6-85e4b96d2c6f))
  (fp_line (start -0.635 -1.27) (end 1.27 -1.27) (layer "F.Fab") (width 0.1) (tstamp d2bb4fbc-9d78-4495-ac06-1796e24b796c))
  (fp_line (start 1.27 -1.27) (end 1.27 19.05) (layer "F.Fab") (width 0.1) (tstamp f1fd780d-c1e0-4593-a3f3-33dc361eedab))
  (pad "1" thru_hole oval (at 0 17.78) (size 1.7 1.7) (drill 1) (layers *.Cu *.Mask) (tstamp a3732d2c-ad8c-4009-b7a6-1acbce6b3a60))
  (pad "2" thru_hole roundrect (at 0 15.24) (size 1.7 1.7) (drill 1) (layers *.Cu *.Mask) (roundrect_rratio 0.25) (tstamp a4a20636-440b-4fb9-9c0d-1773d354adf3))
  (pad "3" thru_hole oval (at 0 12.7) (size 1.7 1.7) (drill 1) (layers *.Cu *.Mask) (tstamp 067442a4-5bba-4fba-8538-cd60101b84d4))
  (pad "4" thru_hole oval (at 0 10.16) (size 1.7 1.7) (drill 1) (layers *.Cu *.Mask) (tstamp ec742300-da39-41c3-882b-710f02be92e6))
  (pad "5" thru_hole oval (at 0 7.62) (size 1.7 1.7) (drill 1) (layers *.Cu *.Mask) (tstamp 96deebfc-56d8-494b-bb8b-c804b2d9fac3))
  (pad "6" thru_hole oval (at 0 5.08) (size 1.7 1.7) (drill 1) (layers *.Cu *.Mask) (tstamp 9f9dd16b-946c-47e2-bd41-db918d39543c))
  (pad "7" thru_hole oval (at 0 2.54) (size 1.7 1.7) (drill 1) (layers *.Cu *.Mask) (tstamp ff657f04-ef47-4459-a075-b19482bc7e66))
  (pad "8" thru_hole oval (at 0 0) (size 1.7 1.7) (drill 1) (layers *.Cu *.Mask) (tstamp 6af255a2-0ca3-45eb-9aef-e08eabacab61))
  (model "${KICAD6_3DMODEL_DIR}/Connector_PinSocket_2.54mm.3dshapes/PinSocket_1x08_P2.54mm_Vertical.wrl"
    (offset (xyz 0 0 0))
    (scale (xyz 1 1 1))
    (rotate (xyz 0 0 0))
  )
  (model "${KIPRJMOD}/3dmodels/MPU 6050 IMU.STEP"
    (offset (xyz 9.75 -1.5 -0.5))
    (scale (xyz 1 1 1))
    (rotate (xyz -90 0 90))
  )
)
