(footprint "R-dual-100" (version 20211014) (generator pcbnew)
  (layer "F.Cu")
  (tedit 61D96B20)
  (descr "Resistor, Axial_DIN0207 series, Axial, Horizontal, pin pitch=7.62mm, 0.25W = 1/4W, length*diameter=6.3*2.5mm^2, http://cdn-reichelt.de/documents/datenblatt/B400/1_4W%23YAG.pdf")
  (tags "Resistor Axial_DIN0207 series Axial Horizontal pin pitch 7.62mm 0.25W = 1/4W length 6.3mm diameter 2.5mm")
  (property "Sheetfile" "m65.kicad_sch")
  (property "Sheetname" "")
  (attr through_hole)
  (fp_text reference "R*" (at 3.81 0.07) (layer "F.SilkS")
    (effects (font (size 0.5 0.5) (thickness 0.125)))
    (tstamp 31861b10-e240-4549-bce8-0a542b9e855d)
  )
  (fp_text value "${VALUE}" (at 9.16 0 90) (layer "F.SilkS")
    (effects (font (size 0.5 0.5) (thickness 0.125)))
    (tstamp 082a1d7d-b933-47bd-8e8c-0135e64802ef)
  )
  (fp_text user "${REFERENCE}" (at 3.81 0.1) (layer "B.SilkS")
    (effects (font (size 0.5 0.5) (thickness 0.125)) (justify mirror))
    (tstamp 34fb8743-d1e5-4cc8-9837-dc434af48062)
  )
  (fp_text user "${VALUE}" (at 9.16 0 90) (layer "B.SilkS")
    (effects (font (size 0.5 0.5) (thickness 0.125)) (justify mirror))
    (tstamp 6035070a-1e5f-4a44-bcdd-ff55d728751d)
  )
  (fp_text user "${REFERENCE}" (at 3.86 0) (layer "F.Fab")
    (effects (font (size 0.8 0.8) (thickness 0.12)))
    (tstamp 3afccdad-f682-4d78-82bd-92fa808df894)
  )
  (fp_line (start 0.54 1.04) (end 0.54 1.37) (layer "B.SilkS") (width 0.12) (tstamp 4520e90e-e92f-4bee-8f35-dceca98b18c5))
  (fp_line (start 7.08 1.37) (end 7.08 1.04) (layer "B.SilkS") (width 0.12) (tstamp 527a6b31-d902-48f3-84a2-d18bc00f8018))
  (fp_line (start 0.54 -1.04) (end 0.54 -1.37) (layer "B.SilkS") (width 0.12) (tstamp 69e56b04-f326-4be7-b70c-c25a2bcbb663))
  (fp_line (start 7.08 -1.37) (end 7.08 -1.04) (layer "B.SilkS") (width 0.12) (tstamp 7c4843f7-a249-4e63-9b35-8612949ee77d))
  (fp_line (start 0.54 -1.37) (end 7.08 -1.37) (layer "B.SilkS") (width 0.12) (tstamp 7ea7ffa8-7cdd-45b4-af91-c2c51e8bfcf3))
  (fp_line (start 0.54 1.37) (end 7.08 1.37) (layer "B.SilkS") (width 0.12) (tstamp c34ea00b-f20a-4c31-ae95-5e00dbfb4d79))
  (fp_line (start 7.08 -1.37) (end 7.08 -1.04) (layer "F.SilkS") (width 0.12) (tstamp 2c4099b7-757b-4262-ad89-12d6bf6fd2fe))
  (fp_line (start 0.54 -1.37) (end 7.08 -1.37) (layer "F.SilkS") (width 0.12) (tstamp 936ae2d1-e6a3-4792-beb9-96cc80916743))
  (fp_line (start 0.54 -1.04) (end 0.54 -1.37) (layer "F.SilkS") (width 0.12) (tstamp af1d9769-3f7e-406c-a060-621d0f9a84ae))
  (fp_line (start 7.08 1.37) (end 7.08 1.04) (layer "F.SilkS") (width 0.12) (tstamp afa41341-4bae-40d6-a939-2cfc1707b9e0))
  (fp_line (start 0.54 1.37) (end 7.08 1.37) (layer "F.SilkS") (width 0.12) (tstamp b1f3c57a-43c7-4910-be92-878bbaea3c3e))
  (fp_line (start 0.54 1.04) (end 0.54 1.37) (layer "F.SilkS") (width 0.12) (tstamp e25dafe9-21d1-41d8-8710-2f5119681fb9))
  (fp_line (start 8.67 1.5) (end 8.67 -1.5) (layer "F.CrtYd") (width 0.05) (tstamp 35f0b6d2-d058-4327-bf7f-2824dadfe02e))
  (fp_line (start -1.05 1.5) (end 8.67 1.5) (layer "F.CrtYd") (width 0.05) (tstamp 944f56fa-edd0-4215-b73c-057e1e3ccd9f))
  (fp_line (start 8.67 -1.5) (end -1.05 -1.5) (layer "F.CrtYd") (width 0.05) (tstamp f2792d9e-7948-468f-b20b-56bd136554ee))
  (fp_line (start -1.05 -1.5) (end -1.05 1.5) (layer "F.CrtYd") (width 0.05) (tstamp ff397433-39ae-43d0-a8fa-743792c07a43))
  (fp_line (start 0 0) (end 0.66 0) (layer "F.Fab") (width 0.1) (tstamp 04843ad7-c6b2-4f89-a318-f553e4b6b2c5))
  (fp_line (start 2.26 -0.8) (end 5.46 -0.8) (layer "F.Fab") (width 0.1) (tstamp 231ff00e-db22-400d-8631-e0c73b47d898))
  (fp_line (start 2.26 0.8) (end 2.26 -0.8) (layer "F.Fab") (width 0.1) (tstamp 47245149-ab25-4afe-8074-7eaa1ee3113f))
  (fp_line (start 5.46 0.8) (end 2.26 0.8) (layer "F.Fab") (width 0.1) (tstamp 7b7cd641-5ed3-4a1b-a6db-05064eef3736))
  (fp_line (start 5.46 -0.8) (end 5.46 0.8) (layer "F.Fab") (width 0.1) (tstamp 7d00842a-6c36-4651-82cb-355a64cf41b5))
  (fp_line (start 6.96 -1.25) (end 0.66 -1.25) (layer "F.Fab") (width 0.1) (tstamp b267a65b-6570-42ee-96a1-0c25d5372e90))
  (fp_line (start 0.66 1.25) (end 6.96 1.25) (layer "F.Fab") (width 0.1) (tstamp c0845e4f-f2e7-49e7-a896-196b1ebb938d))
  (fp_line (start 0.66 -1.25) (end 0.66 1.25) (layer "F.Fab") (width 0.1) (tstamp c9f84269-2f69-4d9d-84ec-eaf65de5bf2c))
  (fp_line (start 6.96 1.25) (end 6.96 -1.25) (layer "F.Fab") (width 0.1) (tstamp e5542197-0ac9-454a-b665-60cc9ab6848c))
  (fp_line (start 7.62 0) (end 6.96 0) (layer "F.Fab") (width 0.1) (tstamp fdf15803-0b9d-4c66-8fac-4f24b0b66872))
  (pad "1" smd roundrect (at 2.35 0) (size 1.3 1.75) (layers "F.Cu" "F.Paste" "F.Mask") (roundrect_rratio 0.192308) (tstamp 20325954-8a01-40da-8d0a-b8e81c6b7f37))
  (pad "1" smd roundrect (at 1.5 0) (size 2.2 0.8) (layers "F.Cu" "F.Paste" "F.Mask") (roundrect_rratio 0.192308) (tstamp 910da24f-ceac-4630-9d08-236180a65eb8))
  (pad "1" smd roundrect (at 2.35 0) (size 1.3 1.75) (layers "B.Cu" "B.Paste" "B.Mask") (roundrect_rratio 0.192308) (tstamp 9d68168e-2c21-41db-afb2-71be32ee1bd5))
  (pad "1" thru_hole circle (at 0 0) (size 1.6 1.6) (drill 0.8) (layers *.Cu *.Mask) (tstamp b977bc04-4be7-4ba0-bfce-4d5ce40fa552))
  (pad "1" smd roundrect (at 1.5 0) (size 2.2 0.8) (layers "B.Cu" "B.Paste" "B.Mask") (roundrect_rratio 0.192308) (tstamp fdb29742-12e4-4a09-83a1-5ad6c1e0446e))
  (pad "2" smd roundrect (at 5.45 0) (size 1.3 1.75) (layers "F.Cu" "F.Paste" "F.Mask") (roundrect_rratio 0.192308) (tstamp 16e2dfd2-899a-4cd0-994d-37e9d3137448))
  (pad "2" smd roundrect (at 5.45 0) (size 1.3 1.75) (layers "B.Cu" "B.Paste" "B.Mask") (roundrect_rratio 0.192308) (tstamp 5132485a-595f-45fb-b6c8-1de494f083ec))
  (pad "2" smd roundrect (at 6.35 0) (size 1.8 0.8) (layers "F.Cu" "F.Paste" "F.Mask") (roundrect_rratio 0.192308) (tstamp 6302d983-c994-4c6e-8ef0-2d7ab3ad8947))
  (pad "2" smd roundrect (at 6.35 0) (size 1.8 0.8) (layers "B.Cu" "B.Paste" "B.Mask") (roundrect_rratio 0.192308) (tstamp 8662f15e-e795-4921-8ab4-6998577a3a2e))
  (pad "2" thru_hole oval (at 7.62 0) (size 1.6 1.6) (drill 0.8) (layers *.Cu *.Mask) (tstamp 94b3caf9-3126-4b44-ba19-59f0a80edde4))
  (model "${KICAD6_3DMODEL_DIR}/Resistor_SMD.3dshapes/R_1206_3216Metric.wrl"
    (offset (xyz 4 0 -1.8))
    (scale (xyz 1 1 1))
    (rotate (xyz 0 180 0))
  )
  (model "${KIPRJMOD}/3dmodels/resistors/R101.wrl"
    (offset (xyz 4 0 0))
    (scale (xyz 1 1 1))
    (rotate (xyz 0 0 0))
  )
)
